
                           ***********************       
                           *  WELCOME TO SIESTA  *       
                           ***********************       

reinit: Reading from ../var_cell.fdf

reinit: -----------------------------------------------------------------------
reinit: System Name: MgCo3 R-3c Harris -- SZ, 100 R -- variable cell at 100 Gpa
reinit: -----------------------------------------------------------------------
reinit: System Label: var_cell
reinit: -----------------------------------------------------------------------
Siesta Version: trunk-554
Architecture  : x86_64-linux-gcc
Compiler flags: mpif90 -m64 -fPIC -O3 -ftree-vectorize -fexpensive-optimizations -funroll-loops -fprefetch-loop-arrays -fgraphite -fipa-icf -fipa-pure-const -march=native -fschedule-fusion -fselective-scheduling  -fipa-sra -fipa-cp -fno-second-underscore -I/opt/zlib/1.2.8/gnu-6.1.0/include -I/opt/hdf5/1.8.16/gnu-6.1.0/include -I/opt/pnetcdf/1.7.0/gnu-6.1.0/include -I/opt/netcdf/4.4.0/gnu-6.1.0/include -I/opt/openmpi/1.10.2/gnu-6.1.0/include -I/opt/mumps/5.0.1/gnu-6.1.0/include
PP flags      : -DSIESTA__FLOOK -DSIESTA__METIS -DMPI -DFC_HAVE_FLUSH -DFC_HAVE_ABORT -DCDF -DGRID_DP -DMPI_TIMING -DTRANSIESTA_TIMING -DTBTRANS_TIMING -DSIESTA__MUMPS -DNCDF_PARALLEL -DNCDF -DNCDF_4 -DSCALAPACK_DEBUG
Libraries     : -lzmumps -lmumps_common -lpord -lparmetis -lmetis -L/opt/scalapack/204/gnu-6.1.0/lib -Wl,-rpath=/opt/scalapack/204/gnu-6.1.0/lib -lscalapack  -L/opt/openblas/0.2.17/gnu-6.1.0/lib -Wl,-rpath=/opt/openblas/0.2.17/gnu-6.1.0/lib -lopenblas -L/home/nicpa/phd/esl/flook -lflookall -ldl -lnetcdff -lnetcdf -lpnetcdf -lhdf5_hl -lhdf5 -lz -m64 -fPIC -O3 -ftree-vectorize -fexpensive-optimizations -funroll-loops -fprefetch-loop-arrays -fgraphite -fipa-icf -fipa-pure-const -march=native -fschedule-fusion -fselective-scheduling  -fipa-sra -fipa-cp -fno-second-underscore -I/opt/zlib/1.2.8/gnu-6.1.0/include -I/opt/hdf5/1.8.16/gnu-6.1.0/include -I/opt/pnetcdf/1.7.0/gnu-6.1.0/include -I/opt/netcdf/4.4.0/gnu-6.1.0/include -I/opt/openmpi/1.10.2/gnu-6.1.0/include -I/opt/mumps/5.0.1/gnu-6.1.0/include
PARALLEL version
NetCDF support
NetCDF-4 support
NetCDF-4 MPI-IO support
METIS ordering support

* Running on 4 nodes in parallel
>> Start of run:  18-AUG-2016  10:31:28

initatom: Reading input for the pseudopotentials and atomic orbitals ----------
Species number:   1 Atomic number:   12 Label: Mg
Species number:   2 Atomic number:    6 Label: C
Species number:   3 Atomic number:    8 Label: O

Ground state valence configuration:   3s02
Reading pseudopotential information in formatted form from Mg.psf

Valence configuration for pseudopotential generation:
3s( 2.00) rc: 2.59
3p( 0.00) rc: 2.59
3d( 0.00) rc: 2.59
4f( 0.00) rc: 2.59
Ground state valence configuration:   2s02  2p02
Reading pseudopotential information in formatted form from C.psf

Valence configuration for pseudopotential generation:
2s( 2.00) rc: 1.49
2p( 2.00) rc: 1.52
3d( 0.00) rc: 1.58
Ground state valence configuration:   2s02  2p04
Reading pseudopotential information in formatted form from O.psf

Valence configuration for pseudopotential generation:
2s( 2.00) rc: 1.14
2p( 4.00) rc: 1.14
3d( 0.00) rc: 1.14
4f( 0.00) rc: 1.14
For Mg, standard SIESTA heuristics set lmxkb to 1
 (one more than the basis l, including polarization orbitals).
Use PS.lmax or PS.KBprojectors blocks to override.
For C, standard SIESTA heuristics set lmxkb to 2
 (one more than the basis l, including polarization orbitals).
Use PS.lmax or PS.KBprojectors blocks to override.
For O, standard SIESTA heuristics set lmxkb to 2
 (one more than the basis l, including polarization orbitals).
Use PS.lmax or PS.KBprojectors blocks to override.

<basis_specs>
===============================================================================
Mg                   Z=  12    Mass=  24.310        Charge= 0.17977+309
Lmxo=0 Lmxkb= 1    BasisType=split      Semic=F
L=0  Nsemic=0  Cnfigmx=3
          n=1  nzeta=1  polorb=0
            splnorm:   0.15000    
               vcte:    0.0000    
               rinn:    0.0000    
               qcoe:    0.0000    
               qyuk:    0.0000    
               qwid:   0.10000E-01
                rcs:    0.0000    
            lambdas:    1.0000    
-------------------------------------------------------------------------------
L=0  Nkbl=1  erefs: 0.17977+309
L=1  Nkbl=1  erefs: 0.17977+309
===============================================================================
</basis_specs>

atom: Called for Mg                    (Z =  12)

read_vps: Pseudopotential generation method:
read_vps: ATM3      Troullier-Martins                       
Total valence charge:    2.00000

xc_check: Exchange-correlation functional:
xc_check: Ceperley-Alder
V l=0 = -2*Zval/r beyond r=  3.5878
V l=1 = -2*Zval/r beyond r=  3.5878
All V_l potentials equal beyond r=  2.5600
This should be close to max(r_c) in ps generation
All pots = -2*Zval/r beyond r=  3.5878
Using large-core scheme for Vlocal

atom: Estimated core radius    3.58779

atom: Including non-local core corrections could be a good idea
atom: Maximum radius for 4*pi*r*r*local-pseudopot. charge    3.91588
atom: Maximum radius for r*vlocal+2*Zval:    3.63292
GHOST: No ghost state for L =  0
GHOST: No ghost state for L =  1

KBgen: Kleinman-Bylander projectors: 
   l= 0   rc=  2.657845   el= -0.351328   Ekb=  2.184400   kbcos=  0.257081
   l= 1   rc=  2.657845   el= -0.101748   Ekb=  0.525536   kbcos=  0.270508

KBgen: Total number of  Kleinman-Bylander projectors:    4
atom: -------------------------------------------------------------------------

atom: SANKEY-TYPE ORBITALS:

SPLIT: Orbitals with angular momentum L= 0

SPLIT: Basis orbitals for state 3s

SPLIT: PAO cut-off radius determined from an
SPLIT: energy shift=  0.020000 Ry

   izeta = 1
                 lambda =    1.000000
                     rc =    6.619780
                 energy =   -0.332103
                kinetic =    0.289627
    potential(screened) =   -0.621729
       potential(ionic) =   -1.387191
atom: Total number of Sankey-type orbitals:  1

atm_pop: Valence configuration (for local Pseudopot. screening):
 3s( 2.00)                                                            
Vna: chval, zval:    2.00000   2.00000

Vna:  Cut-off radius for the neutral-atom potential:   6.619780

atom: _________________________________________________________________________

<basis_specs>
===============================================================================
C                    Z=   6    Mass=  12.010        Charge= 0.17977+309
Lmxo=1 Lmxkb= 2    BasisType=split      Semic=F
L=0  Nsemic=0  Cnfigmx=2
          n=1  nzeta=1  polorb=0
            splnorm:   0.15000    
               vcte:    0.0000    
               rinn:    0.0000    
               qcoe:    0.0000    
               qyuk:    0.0000    
               qwid:   0.10000E-01
                rcs:    0.0000    
            lambdas:    1.0000    
L=1  Nsemic=0  Cnfigmx=2
          n=1  nzeta=1  polorb=0
            splnorm:   0.15000    
               vcte:    0.0000    
               rinn:    0.0000    
               qcoe:    0.0000    
               qyuk:    0.0000    
               qwid:   0.10000E-01
                rcs:    0.0000    
            lambdas:    1.0000    
-------------------------------------------------------------------------------
L=0  Nkbl=1  erefs: 0.17977+309
L=1  Nkbl=1  erefs: 0.17977+309
L=2  Nkbl=1  erefs: 0.17977+309
===============================================================================
</basis_specs>

atom: Called for C                     (Z =   6)

read_vps: Pseudopotential generation method:
read_vps: ATM3      Troullier-Martins                       
Total valence charge:    4.00000

xc_check: Exchange-correlation functional:
xc_check: Ceperley-Alder
V l=0 = -2*Zval/r beyond r=  1.4666
V l=1 = -2*Zval/r beyond r=  1.5038
V l=2 = -2*Zval/r beyond r=  1.5612
All V_l potentials equal beyond r=  1.5612
This should be close to max(r_c) in ps generation
All pots = -2*Zval/r beyond r=  1.5612

VLOCAL1: 99.0% of the norm of Vloc inside     17.809 Ry
VLOCAL1: 99.9% of the norm of Vloc inside     40.586 Ry
atom: Maximum radius for 4*pi*r*r*local-pseudopot. charge    1.88329
atom: Maximum radius for r*vlocal+2*Zval:    1.62091
GHOST: No ghost state for L =  0
GHOST: No ghost state for L =  1
GHOST: No ghost state for L =  2

KBgen: Kleinman-Bylander projectors: 
   l= 0   rc=  1.747182   el= -1.001947   Ekb=  5.181700   kbcos=  0.300603
   l= 1   rc=  1.747182   el= -0.398598   Ekb= -4.328763   kbcos= -0.367074
   l= 2   rc=  1.955272   el=  0.002326   Ekb= -1.016175   kbcos= -0.009979

KBgen: Total number of  Kleinman-Bylander projectors:    9
atom: -------------------------------------------------------------------------

atom: SANKEY-TYPE ORBITALS:

SPLIT: Orbitals with angular momentum L= 0

SPLIT: Basis orbitals for state 2s

SPLIT: PAO cut-off radius determined from an
SPLIT: energy shift=  0.020000 Ry

   izeta = 1
                 lambda =    1.000000
                     rc =    4.191849
                 energy =   -0.983897
                kinetic =    0.886956
    potential(screened) =   -1.870853
       potential(ionic) =   -5.479661

SPLIT: Orbitals with angular momentum L= 1

SPLIT: Basis orbitals for state 2p

SPLIT: PAO cut-off radius determined from an
SPLIT: energy shift=  0.020000 Ry

   izeta = 1
                 lambda =    1.000000
                     rc =    4.870301
                 energy =   -0.379093
                kinetic =    2.545357
    potential(screened) =   -2.924450
       potential(ionic) =   -6.433151
atom: Total number of Sankey-type orbitals:  4

atm_pop: Valence configuration (for local Pseudopot. screening):
 2s( 2.00)                                                            
 2p( 2.00)                                                            
Vna: chval, zval:    4.00000   4.00000

Vna:  Cut-off radius for the neutral-atom potential:   4.870301

atom: _________________________________________________________________________

<basis_specs>
===============================================================================
O                    Z=   8    Mass=  16.000        Charge= 0.17977+309
Lmxo=1 Lmxkb= 2    BasisType=split      Semic=F
L=0  Nsemic=0  Cnfigmx=2
          n=1  nzeta=1  polorb=0
            splnorm:   0.15000    
               vcte:    0.0000    
               rinn:    0.0000    
               qcoe:    0.0000    
               qyuk:    0.0000    
               qwid:   0.10000E-01
                rcs:    0.0000    
            lambdas:    1.0000    
L=1  Nsemic=0  Cnfigmx=2
          n=1  nzeta=1  polorb=0
            splnorm:   0.15000    
               vcte:    0.0000    
               rinn:    0.0000    
               qcoe:    0.0000    
               qyuk:    0.0000    
               qwid:   0.10000E-01
                rcs:    0.0000    
            lambdas:    1.0000    
-------------------------------------------------------------------------------
L=0  Nkbl=1  erefs: 0.17977+309
L=1  Nkbl=1  erefs: 0.17977+309
L=2  Nkbl=1  erefs: 0.17977+309
===============================================================================
</basis_specs>

atom: Called for O                     (Z =   8)

read_vps: Pseudopotential generation method:
read_vps: ATM3      Troullier-Martins                       
Total valence charge:    6.00000

xc_check: Exchange-correlation functional:
xc_check: Ceperley-Alder
V l=0 = -2*Zval/r beyond r=  1.1278
V l=1 = -2*Zval/r beyond r=  1.1278
V l=2 = -2*Zval/r beyond r=  1.1278
All V_l potentials equal beyond r=  1.1278
This should be close to max(r_c) in ps generation
All pots = -2*Zval/r beyond r=  1.1278

VLOCAL1: 99.0% of the norm of Vloc inside     34.126 Ry
VLOCAL1: 99.9% of the norm of Vloc inside     77.774 Ry
atom: Maximum radius for 4*pi*r*r*local-pseudopot. charge    1.37759
atom: Maximum radius for r*vlocal+2*Zval:    1.18566
GHOST: No ghost state for L =  0
GHOST: No ghost state for L =  1
GHOST: No ghost state for L =  2

KBgen: Kleinman-Bylander projectors: 
   l= 0   rc=  1.294105   el= -1.742414   Ekb=  9.135903   kbcos=  0.326910
   l= 1   rc=  1.294105   el= -0.676589   Ekb= -8.124878   kbcos= -0.395047
   l= 2   rc=  1.448233   el=  0.002386   Ekb= -2.039267   kbcos= -0.003484

KBgen: Total number of  Kleinman-Bylander projectors:    9
atom: -------------------------------------------------------------------------

atom: SANKEY-TYPE ORBITALS:

SPLIT: Orbitals with angular momentum L= 0

SPLIT: Basis orbitals for state 2s

SPLIT: PAO cut-off radius determined from an
SPLIT: energy shift=  0.020000 Ry

   izeta = 1
                 lambda =    1.000000
                     rc =    3.305093
                 energy =   -1.723766
                kinetic =    1.614911
    potential(screened) =   -3.338677
       potential(ionic) =  -11.304675

SPLIT: Orbitals with angular momentum L= 1

SPLIT: Basis orbitals for state 2p

SPLIT: PAO cut-off radius determined from an
SPLIT: energy shift=  0.020000 Ry

   izeta = 1
                 lambda =    1.000000
                     rc =    3.937239
                 energy =   -0.658841
                kinetic =    5.005986
    potential(screened) =   -5.664827
       potential(ionic) =  -13.452360
atom: Total number of Sankey-type orbitals:  4

atm_pop: Valence configuration (for local Pseudopot. screening):
 2s( 2.00)                                                            
 2p( 4.00)                                                            
Vna: chval, zval:    6.00000   6.00000

Vna:  Cut-off radius for the neutral-atom potential:   3.937239

atom: _________________________________________________________________________

prinput: Basis input ----------------------------------------------------------

PAO.BasisType split     

%block ChemicalSpeciesLabel
    1   12 Mg                      # Species index, atomic number, species label
    2    6 C                       # Species index, atomic number, species label
    3    8 O                       # Species index, atomic number, species label
%endblock ChemicalSpeciesLabel

%block PAO.Basis                 # Define Basis set
Mg                    1                    # Species label, number of l-shells
 n=3   0   1                         # n, l, Nzeta 
   6.620   
   1.000   
C                     2                    # Species label, number of l-shells
 n=2   0   1                         # n, l, Nzeta 
   4.192   
   1.000   
 n=2   1   1                         # n, l, Nzeta 
   4.870   
   1.000   
O                     2                    # Species label, number of l-shells
 n=2   0   1                         # n, l, Nzeta 
   3.305   
   1.000   
 n=2   1   1                         # n, l, Nzeta 
   3.937   
   1.000   
%endblock PAO.Basis

prinput: ----------------------------------------------------------------------

Dumping basis to NetCDF file Mg.ion.nc
Dumping basis to NetCDF file C.ion.nc
Dumping basis to NetCDF file O.ion.nc
coor:   Atomic-coordinates input format  =     Fractional

siesta: Atomic coordinates (Bohr) and species
siesta:      0.00000   0.00000   0.00000  1        1
siesta:     12.51930   5.59740   3.66414  1        2
siesta:      6.25965   2.79870   1.83207  2        3
siesta:     -6.25965  -2.79870  -1.83207  2        4
siesta:      7.25136   0.58061   1.83207  3        5
siesta:      6.25965   4.12944  -0.20079  3        6
siesta:      5.26794   3.68605   3.86493  3        7
siesta:     -7.25136  -0.58061  -1.83207  3        8
siesta:     -6.25965  -4.12944   0.20079  3        9
siesta:     -5.26794  -3.68605  -3.86493  3       10

siesta: System type = bulk      

initatomlists: Number of atoms, orbitals, and projectors:     10    34    80

siesta: ******************** Simulation parameters ****************************
siesta:
siesta: The following are some of the parameters of the simulation.
siesta: A complete list of the parameters used, including default values,
siesta: can be found in file out.fdf
siesta:
redata: Spin configuration                          = none
redata: Number of spin components                   = 1
redata: Time-Reversal Symmetry                      = T
redata: Spin-spiral                                 = F
redata: Long output                                 =   F
redata: Number of Atomic Species                    =        3
redata: Charge density info will appear in .RHO file
redata: Write Mulliken Pop.                         = NO
redata: Mesh Cutoff                                 =   100.0000 Ry
redata: Net charge of the system                    =     0.0000 |e|
redata: Min. number of SCF Iter                     =        0
redata: Max. number of SCF Iter                     =       20
redata: SCF mix quantity                            = Hamiltonian
redata: Mix DM or H after convergence               =   F
redata: Recompute H after scf cycle                 =   F
redata: Mix DM in first SCF step                    =   T
redata: Write Pulay info on disk                    =   F
redata: Discard 1st Pulay DM after kick             =   F
redata: New DM Mixing Weight                        =     0.1000
redata: New DM Occupancy tolerance                  = 0.000000000001
redata: No kicks to SCF
redata: DM Mixing Weight for Kicks                  =     0.5000
redata: Require Harris convergence for SCF          =   F
redata: Harris energy tolerance for SCF             =     0.000100 eV
redata: Require DM convergence for SCF              =   T
redata: DM tolerance for SCF                        =     0.001000
redata: Require H convergence for SCF               =   T
redata: Hamiltonian tolerance for SCF               =     0.001000 eV
redata: Require (free) Energy convergence for SCF   =   F
redata: (free) Energy tolerance for SCF             =     0.000100 eV
redata: Using Saved Data (generic)                  =   F
redata: Use continuation files for DM               =   T
redata: Neglect nonoverlap interactions             =   F
redata: Method of Calculation                       = Diagonalization
redata: Divide and Conquer                          =   F
redata: Electronic Temperature                      =   299.9869 K
redata: Fix the spin of the system                  =   F
redata: Dynamics option                             = Broyden coord. optimization
redata: Variable cell                               =   T
redata: Maximum number of CG moves                  =       30
redata: Force tolerance                             =     0.0400 eV/Ang
redata: Stress tolerance                            =     2.0000 GPa
mix.SCF: Broyden mixing                          = Broyden
mix.SCF:    History steps                        = 3
mix.SCF:    Jacobian weight                      =     0.100000
mix.SCF:    Weight prime                         =     0.100000
redata: Save data in SIESTA.nc                      =   F
redata: ***********************************************************************

%block SCF.Mixers
  Broyden                 
%endblock SCF.Mixers

%block SCF.Mixer.Broyden
  # Mixing method
  method broyden

  # Mixing options
  weight 0.1000
  weight.linear 0.1000
  history 4
  restart 0
  restart.save 1

  # Continuation options
%endblock SCF.Mixer.Broyden

DM_history_depth set to zero for 'Harris' run
Size of DM history Fstack: 0
Total number of electrons:    48.000000
Total ionic charge:    48.000000

* ProcessorY, Blocksize:    2   9


* Orbital distribution balance (max,min):     9     7

 Kpoints in:          154 . Kpoints trimmed:          154

siesta: k-grid: Number of k-points =   154
siesta: k-grid: Cutoff (effective) =    16.222 Ang
siesta: k-grid: Supercell and displacements
siesta: k-grid:   -7   0   7      0.500
siesta: k-grid:    0  -7   7      0.000
siesta: k-grid:    0   0   6      0.000

superc: Internal auxiliary supercell:     5 x     5 x     5  =     125
superc: Number of atoms, orbitals, and projectors:   1250   4250  10000


                     ====================================
                        Begin Broyden opt. move =      0
                     ====================================

outcoor: Atomic coordinates (fractional):                   
    0.00000000    0.00000000    0.00000000   1       1  Mg
    0.50000000    0.50000000    0.50000000   1       2  Mg
    0.25000000    0.25000000    0.25000000   2       3  C
   -0.25000000   -0.25000000   -0.25000000   2       4  C
    0.52740000   -0.02740000    0.25000000   3       5  O
    0.25000000    0.52740000   -0.02740000   3       6  O
   -0.02740000    0.25000000    0.52740000   3       7  O
   -0.52740000    0.02740000   -0.25000000   3       8  O
   -0.25000000   -0.52740000    0.02740000   3       9  O
    0.02740000   -0.25000000   -0.52740000   3      10  O

superc: Internal auxiliary supercell:     5 x     5 x     5  =     125
superc: Number of atoms, orbitals, and projectors:   1250   4250  10000

outcell: Unit cell vectors (Ang):
        5.677830    0.000000    0.000000
        3.786009    4.231299    0.000000
        3.786009    1.692731    3.877957

outcell: Cell vector modules (Ang)   :    5.677830    5.677830    5.677830
outcell: Cell angles (23,13,12) (deg):     48.1790     48.1790     48.1790
outcell: Cell volume (Ang**3)        :     93.1663
<dSpData1D:S at geom step 0
  <sparsity:sparsity for geom step 0
    nrows_g=34 nrows=9 sparsity=3.1332 nnzs=3622, refcount: 7>
  <dData1D:(new from dSpData1D) n=3622, refcount: 1>
refcount: 1>
New_DM. Step:     1
Initializing Density Matrix...
DM after filling with atomic data:
<dSpData2D:(DM initialized from atoms)
  <sparsity:sparsity for geom step 0
    nrows_g=34 nrows=9 sparsity=3.1332 nnzs=3622, refcount: 8>
  <dData2D:(DMatomic) n=3622 m=1, refcount: 1>
refcount: 1>
New grid distribution:   1
           1       1:   16    1:    8    1:    8
           2       1:   16    1:    8    9:   16
           3       1:   16    9:   16    1:    8
           4       1:   16    9:   16    9:   16

InitMesh: MESH =    32 x    32 x    32 =       32768
InitMesh: (bp) =    16 x    16 x    16 =        4096
InitMesh: Mesh cutoff (required, used) =   100.000   112.857 Ry
ExtMesh (bp) on 0 =    76 x    68 x    68 =      351424
New grid distribution:   2
           1       1:   16    1:    8    1:    8
           2       1:   16    1:    8    9:   16
           3       1:   16    9:   16    1:    8
           4       1:   16    9:   16    9:   16
New grid distribution:   3
           1       1:   16    1:    8    1:    8
           2       1:   16    1:    8    9:   16
           3       1:   16    9:   16    1:    8
           4       1:   16    9:   16    9:   16
Setting up quadratic distribution...
ExtMesh (bp) on 0 =    76 x    68 x    68 =      351424
PhiOnMesh: Number of (b)points on node 0 =                 1024
PhiOnMesh: nlist on node 0 =                22552
cdiag-debug: Node=0, lwork=       680>= lworkq=      5542, lrwork=       306>= lrworkq=       306, liwork=       204>= liworkq=       204
cdiag-debug: Node=2, lwork=       680>= lworkq=      5542, lrwork=       306>= lrworkq=       306, liwork=       204>= liworkq=       204
cdiag-debug: Node=3, lwork=       680>= lworkq=      5542, lrwork=       306>= lrworkq=       306, liwork=       204>= liworkq=       204
cdiag-debug: Node=1, lwork=       680>= lworkq=      5542, lrwork=       306>= lrworkq=       306, liwork=       204>= liworkq=       204

stepf: Fermi-Dirac step function

siesta: Program's energy decomposition (eV):
siesta: Ebs     =      -700.301948
siesta: Eions   =      5228.674091
siesta: Ena     =      1092.429444
siesta: Ekin    =      2100.835149
siesta: Enl     =      -258.044678
siesta: Eso     =         0.000000
siesta: Eldau   =         0.000000
siesta: DEna    =        -0.000017
siesta: DUscf   =         0.000000
siesta: DUext   =         0.000000
siesta: Exc     =      -683.847186
siesta: eta*DQ  =         0.000000
siesta: Emadel  =         0.000000
siesta: Emeta   =         0.000000
siesta: Emolmec =         0.000000
siesta: Ekinion =         0.000000
siesta: Eharris =     -2966.326654
siesta: Etot    =     -2977.301381
siesta: FreeEng =     -2977.301381

siesta: Eharris(eV) =   -2966.326654


siesta: Eharris(eV) =   -2966.326654

timer: Routine,Calls,Time,% =    IterSCF     1       1.228  49.44

Using DM_out to compute the final energy and forces

siesta: E_KS - E_eggbox =     -2949.8288

siesta: Atomic forces (eV/Ang):
     1    0.000000   -0.000000    0.000000
     2   -0.000000    0.000000    0.000000
     3   -0.000000    0.000000   -0.000000
     4    0.000000   -0.000000    0.000000
     5    2.760285   -6.173729   -0.000000
     6    0.000000    3.703929   -5.658181
     7   -2.760285    2.469801    5.658181
     8   -2.760285    6.173729    0.000000
     9   -0.000000   -3.703929    5.658181
    10    2.760285   -2.469801   -5.658181
----------------------------------------
   Tot   -0.000000    0.000000   -0.000000
----------------------------------------
   Max    6.173729
   Res    3.024371    sqrt( Sum f_i^2 / 3N )
----------------------------------------
   Max    6.173729    constrained

Stress-tensor-Voigt (kbar):      567.99      382.09      355.54      103.89       30.41       68.01
(Free)E + p*V (eV/cell)    -2975.1357
Target enthalpy (eV/cell)    -2891.6795

siesta: Stress tensor (static) (eV/Ang**3):
         0.354511    0.064841    0.042446
         0.064841    0.238476    0.018978
         0.042446    0.018978    0.221909

siesta: Pressure (static):       -435.20679108  kBar

siesta: Stress tensor (total) (eV/Ang**3):
         0.354511    0.064841    0.042446
         0.064841    0.238476    0.018978
         0.042446    0.018978    0.221909

siesta: Pressure (total):       -435.20679108  kBar

Broyden_optim: max_history for broyden:   6
Broyden_optim: cycle on maxit: T
Broyden_optim: initial inverse jacobian:   1.0000

Broyden_optim: No of elements:     36

Broyden_optim: No target stress found, assuming hydrostatic MD.TargetPressure.

Broyden_optim: Target stress (kBar)
Broyden_optim:     -1000.000       0.000       0.000
Broyden_optim:         0.000   -1000.000       0.000
Broyden_optim:         0.000       0.000   -1000.000

                     ====================================
                        Begin Broyden opt. move =      1
                     ====================================

outcoor: Atomic coordinates (fractional):                   
    0.00000000   -0.00000000    0.00000000   1       1  Mg
    0.50000000    0.50000000    0.50000000   1       2  Mg
    0.25000000    0.25000000    0.25000000   2       3  C
   -0.25000000   -0.25000000   -0.25000000   2       4  C
    0.53740574   -0.03740574    0.25000000   3       5  O
    0.25000000    0.53740574   -0.03740574   3       6  O
   -0.03740574    0.25000000    0.53740574   3       7  O
   -0.53740574    0.03740574   -0.25000000   3       8  O
   -0.25000000   -0.53740574    0.03740574   3       9  O
    0.03740574   -0.25000000   -0.53740574   3      10  O
 Kpoints in:          168 . Kpoints trimmed:          168

siesta: k-grid: Number of k-points =   168
siesta: k-grid: Cutoff (effective) =    15.185 Ang
siesta: k-grid: Supercell and displacements
siesta: k-grid:    7  -7   0      0.500
siesta: k-grid:    0   7  -7      0.000
siesta: k-grid:    6   0   0      0.000

superc: Internal auxiliary supercell:     5 x     5 x     5  =     125
superc: Number of atoms, orbitals, and projectors:   1250   4250  10000

outcell: Unit cell vectors (Ang):
        5.251635   -0.028238   -0.018485
        3.480776    3.932513   -0.018485
        3.480776    1.556261    3.611517

outcell: Cell vector modules (Ang)   :    5.251743    5.251743    5.251743
outcell: Cell angles (23,13,12) (deg):     48.7948     48.7948     48.7948
outcell: Cell volume (Ang**3)        :     75.2462
<dSpData1D:S at geom step 1
  <sparsity:sparsity for geom step 1
    nrows_g=34 nrows=9 sparsity=3.7630 nnzs=4350, refcount: 7>
  <dData1D:(new from dSpData1D) n=4350, refcount: 1>
refcount: 1>
New_DM. Step:     2
Initializing Density Matrix...
DM after filling with atomic data:
<dSpData2D:(DM initialized from atoms)
  <sparsity:sparsity for geom step 1
    nrows_g=34 nrows=9 sparsity=3.7630 nnzs=4350, refcount: 8>
  <dData2D:(DMatomic) n=4350 m=1, refcount: 1>
refcount: 1>
New grid distribution:   1
           1       1:   15    1:    8    1:    8
           2       1:   15    1:    8    9:   15
           3       1:   15    9:   15    1:    8
           4       1:   15    9:   15    9:   15

InitMesh: MESH =    30 x    30 x    30 =       27000
InitMesh: (bp) =    15 x    15 x    15 =        3375
InitMesh: Mesh cutoff (required, used) =   100.000   116.744 Ry
ExtMesh (bp) on 0 =    75 x    68 x    68 =      346800
New grid distribution:   2
           1       1:   15    1:    7    1:    7
           2       1:   15    1:    8    8:   15
           3       1:   15    8:   15    1:    7
           4       1:   15    9:   15    8:   15
New grid distribution:   3
           1       1:   15    1:    8    1:    8
           2       1:   15    1:    8    9:   15
           3       1:   15    9:   15    1:    8
           4       1:   15    9:   15    9:   15
Setting up quadratic distribution...
ExtMesh (bp) on 0 =    75 x    67 x    67 =      336675
PhiOnMesh: Number of (b)points on node 0 =                  735
PhiOnMesh: nlist on node 0 =                19894

siesta: Eharris(eV) =   -2965.796810


siesta: Eharris(eV) =   -2965.796810


Using DM_out to compute the final energy and forces

siesta: Atomic forces (eV/Ang):
     1    0.000000   -0.000000    0.000000
     2   -0.000000    0.000000    0.000000
     3    0.000000   -0.000000    0.000000
     4   -0.000000    0.000000   -0.000000
     5    3.774812   -8.442848   -0.000000
     6   -0.000000    5.065286   -7.737813
     7   -3.774812    3.377561    7.737813
     8   -3.774812    8.442848    0.000000
     9    0.000000   -5.065286    7.737813
    10    3.774812   -3.377561   -7.737813
----------------------------------------
   Tot    0.000000    0.000000    0.000000
----------------------------------------
   Max    8.442848
   Res    4.135961    sqrt( Sum f_i^2 / 3N )
----------------------------------------
   Max    8.442848    constrained

Stress-tensor-Voigt (kbar):      453.52       49.24       -8.48      225.91       66.12      147.88
(Free)E + p*V (eV/cell)    -2956.5877
Target enthalpy (eV/cell)    -2901.8854

siesta: Stress tensor (static) (eV/Ang**3):
         0.283059    0.141001    0.092301
         0.141001    0.030734    0.041268
         0.092301    0.041268   -0.005293

siesta: Pressure (static):       -164.75940353  kBar

siesta: Stress tensor (total) (eV/Ang**3):
         0.283059    0.141001    0.092301
         0.141001    0.030734    0.041268
         0.092301    0.041268   -0.005293

siesta: Pressure (total):       -164.75940353  kBar

                     ====================================
                        Begin Broyden opt. move =      2
                     ====================================

outcoor: Atomic coordinates (fractional):                   
    0.00000000   -0.00000000    0.00000000   1       1  Mg
    0.50000000    0.50000000    0.50000000   1       2  Mg
    0.25000000    0.25000000    0.25000000   2       3  C
   -0.25000000   -0.25000000   -0.25000000   2       4  C
    0.56751367   -0.06751367    0.25000000   3       5  O
    0.25000000    0.56751367   -0.06751367   3       6  O
   -0.06751367    0.25000000    0.56751367   3       7  O
   -0.56751367    0.06751367   -0.25000000   3       8  O
   -0.25000000   -0.56751367    0.06751367   3       9  O
    0.06751367   -0.25000000   -0.56751367   3      10  O
 Kpoints in:          224 . Kpoints trimmed:          224

siesta: k-grid: Number of k-points =   224
siesta: k-grid: Cutoff (effective) =    15.757 Ang
siesta: k-grid: Supercell and displacements
siesta: k-grid:   -8   8   0      0.500
siesta: k-grid:   -8   0   8      0.500
siesta: k-grid:    0   7   0      0.000

superc: Internal auxiliary supercell:     5 x     5 x     5  =     125
superc: Number of atoms, orbitals, and projectors:   1250   4250  10000

outcell: Unit cell vectors (Ang):
        4.501575   -0.144815   -0.094798
        2.893755    3.451279   -0.094798
        2.893755    1.293803    3.200998

outcell: Cell vector modules (Ang)   :    4.504901    4.504901    4.504901
outcell: Cell angles (23,13,12) (deg):     51.8518     51.8518     51.8518
outcell: Cell volume (Ang**3)        :     52.2564
<dSpData1D:S at geom step 2
  <sparsity:sparsity for geom step 2
    nrows_g=34 nrows=9 sparsity=4.6713 nnzs=5400, refcount: 7>
  <dData1D:(new from dSpData1D) n=5400, refcount: 1>
refcount: 1>
New_DM. Step:     3
Initializing Density Matrix...
DM after filling with atomic data:
<dSpData2D:(DM initialized from atoms)
  <sparsity:sparsity for geom step 2
    nrows_g=34 nrows=9 sparsity=4.6713 nnzs=5400, refcount: 8>
  <dData2D:(DMatomic) n=5400 m=1, refcount: 1>
refcount: 1>
New grid distribution:   1
           1       1:   12    1:    6    1:    6
           2       1:   12    1:    6    7:   12
           3       1:   12    7:   12    1:    6
           4       1:   12    7:   12    7:   12

InitMesh: MESH =    24 x    24 x    24 =       13824
InitMesh: (bp) =    12 x    12 x    12 =        1728
InitMesh: Mesh cutoff (required, used) =   100.000   105.274 Ry
ExtMesh (bp) on 0 =    64 x    58 x    58 =      215296
New grid distribution:   2
           1       1:   12    1:    6    1:    6
           2       1:   12    1:    6    7:   12
           3       1:   12    7:   12    1:    6
           4       1:   12    7:   12    7:   12
New grid distribution:   3
           1       1:   12    1:    6    1:    6
           2       1:   12    1:    6    7:   12
           3       1:   12    7:   12    1:    6
           4       1:   12    7:   12    7:   12
Setting up quadratic distribution...
ExtMesh (bp) on 0 =    64 x    58 x    58 =      215296
PhiOnMesh: Number of (b)points on node 0 =                  432
PhiOnMesh: nlist on node 0 =                16556

siesta: Eharris(eV) =   -2956.021855


siesta: Eharris(eV) =   -2956.021855


Using DM_out to compute the final energy and forces

siesta: Atomic forces (eV/Ang):
     1    0.000000   -0.000000   -0.000000
     2    0.000000    0.000000   -0.000000
     3    0.000000    0.000000   -0.000000
     4   -0.000000   -0.000000    0.000000
     5    1.024317   -2.291015   -0.000000
     6   -0.000000    1.374494   -2.099700
     7   -1.024317    0.916521    2.099700
     8   -1.024317    2.291015    0.000000
     9    0.000000   -1.374494    2.099700
    10    1.024317   -0.916521   -2.099700
----------------------------------------
   Tot   -0.000000   -0.000000   -0.000000
----------------------------------------
   Max    2.291015
   Res    1.122317    sqrt( Sum f_i^2 / 3N )
----------------------------------------
   Max    2.291015    constrained

Stress-tensor-Voigt (kbar):     -908.64    -1196.62    -1237.73      160.92       47.10      105.34
(Free)E + p*V (eV/cell)    -2897.9860
Target enthalpy (eV/cell)    -2901.7149

siesta: Stress tensor (static) (eV/Ang**3):
        -0.567121    0.100440    0.065749
         0.100440   -0.746860    0.029397
         0.065749    0.029397   -0.772524

siesta: Pressure (static):       1114.32872564  kBar

siesta: Stress tensor (total) (eV/Ang**3):
        -0.567121    0.100440    0.065749
         0.100440   -0.746860    0.029397
         0.065749    0.029397   -0.772524

siesta: Pressure (total):       1114.32872564  kBar

                     ====================================
                        Begin Broyden opt. move =      3
                     ====================================

outcoor: Atomic coordinates (fractional):                   
    0.00000000   -0.00000000    0.00000000   1       1  Mg
    0.50000000    0.50000000    0.50000000   1       2  Mg
    0.25000000    0.25000000    0.25000000   2       3  C
   -0.25000000   -0.25000000   -0.25000000   2       4  C
    0.56782832   -0.06782832    0.25000000   3       5  O
    0.25000000    0.56782832   -0.06782832   3       6  O
   -0.06782832    0.25000000    0.56782832   3       7  O
   -0.56782832    0.06782832   -0.25000000   3       8  O
   -0.25000000   -0.56782832    0.06782832   3       9  O
    0.06782832   -0.25000000   -0.56782832   3      10  O
 Kpoints in:          280 . Kpoints trimmed:          280

siesta: k-grid: Number of k-points =   280
siesta: k-grid: Cutoff (effective) =    16.014 Ang
siesta: k-grid: Supercell and displacements
siesta: k-grid:   -8   8   0      0.500
siesta: k-grid:    0   8  -8      0.500
siesta: k-grid:    0   7   0      0.000

superc: Internal auxiliary supercell:     5 x     5 x     5  =     125
superc: Number of atoms, orbitals, and projectors:   1250   4250  10000

outcell: Unit cell vectors (Ang):
        4.571326   -0.160805   -0.105265
        2.928349    3.513923   -0.105265
        2.928349    1.309270    3.262598

outcell: Cell vector modules (Ang)   :    4.575365    4.575365    4.575365
outcell: Cell angles (23,13,12) (deg):     52.1934     52.1934     52.1934
outcell: Cell volume (Ang**3)        :     55.3036
<dSpData1D:S at geom step 3
  <sparsity:sparsity for geom step 3
    nrows_g=34 nrows=9 sparsity=4.6713 nnzs=5400, refcount: 7>
  <dData1D:(new from dSpData1D) n=5400, refcount: 1>
refcount: 1>
New_DM. Step:     4
Initializing Density Matrix...
DM after filling with atomic data:
<dSpData2D:(DM initialized from atoms)
  <sparsity:sparsity for geom step 3
    nrows_g=34 nrows=9 sparsity=4.6713 nnzs=5400, refcount: 8>
  <dData2D:(DMatomic) n=5400 m=1, refcount: 1>
refcount: 1>
New grid distribution:   1
           1       1:   12    1:    6    1:    6
           2       1:   12    1:    6    7:   12
           3       1:   12    7:   12    1:    6
           4       1:   12    7:   12    7:   12

InitMesh: MESH =    24 x    24 x    24 =       13824
InitMesh: (bp) =    12 x    12 x    12 =        1728
InitMesh: Mesh cutoff (required, used) =   100.000   102.487 Ry
ExtMesh (bp) on 0 =    64 x    58 x    58 =      215296
New grid distribution:   2
           1       1:   12    1:    6    1:    6
           2       1:   12    1:    6    7:   12
           3       1:   12    7:   12    1:    6
           4       1:   12    7:   12    7:   12
New grid distribution:   3
           1       1:   12    1:    6    1:    6
           2       1:   12    1:    6    7:   12
           3       1:   12    7:   12    1:    6
           4       1:   12    7:   12    7:   12
Setting up quadratic distribution...
ExtMesh (bp) on 0 =    64 x    58 x    58 =      215296
PhiOnMesh: Number of (b)points on node 0 =                  432
PhiOnMesh: nlist on node 0 =                15730

siesta: Eharris(eV) =   -2959.934740


siesta: Eharris(eV) =   -2959.934740


Using DM_out to compute the final energy and forces

siesta: Atomic forces (eV/Ang):
     1   -0.000000   -0.000000    0.000000
     2   -0.000000   -0.000000    0.000000
     3   -0.000000    0.000000    0.000000
     4    0.000000   -0.000000   -0.000000
     5    0.428527   -0.958455   -0.000000
     6   -0.000000    0.575025   -0.878417
     7   -0.428527    0.383430    0.878417
     8   -0.428527    0.958455    0.000000
     9    0.000000   -0.575025    0.878417
    10    0.428527   -0.383430   -0.878417
----------------------------------------
   Tot   -0.000000   -0.000000   -0.000000
----------------------------------------
   Max    0.958455
   Res    0.469525    sqrt( Sum f_i^2 / 3N )
----------------------------------------
   Max    0.958455    constrained

Stress-tensor-Voigt (kbar):     -493.82     -616.44     -633.95       68.52       20.05       44.86
(Free)E + p*V (eV/cell)    -2918.4393
Target enthalpy (eV/cell)    -2903.9904

siesta: Stress tensor (static) (eV/Ang**3):
        -0.308215    0.042767    0.027996
         0.042767   -0.384749    0.012517
         0.027996    0.012517   -0.395676

siesta: Pressure (static):        581.40422271  kBar

siesta: Stress tensor (total) (eV/Ang**3):
        -0.308215    0.042767    0.027996
         0.042767   -0.384749    0.012517
         0.027996    0.012517   -0.395676

siesta: Pressure (total):        581.40422271  kBar

                     ====================================
                        Begin Broyden opt. move =      4
                     ====================================

outcoor: Atomic coordinates (fractional):                   
    0.00000000    0.00000000    0.00000000   1       1  Mg
    0.50000000    0.50000000    0.50000000   1       2  Mg
    0.25000000    0.25000000    0.25000000   2       3  C
   -0.25000000   -0.25000000   -0.25000000   2       4  C
    0.55967135   -0.05967135    0.25000000   3       5  O
    0.25000000    0.55967135   -0.05967135   3       6  O
   -0.05967135    0.25000000    0.55967135   3       7  O
   -0.55967135    0.05967135   -0.25000000   3       8  O
   -0.25000000   -0.55967135    0.05967135   3       9  O
    0.05967135   -0.25000000   -0.55967135   3      10  O
 Kpoints in:          280 . Kpoints trimmed:          280

siesta: k-grid: Number of k-points =   280
siesta: k-grid: Cutoff (effective) =    16.548 Ang
siesta: k-grid: Supercell and displacements
siesta: k-grid:   -8   8   0      0.500
siesta: k-grid:    0   8  -8      0.500
siesta: k-grid:    0   7   0      0.000

superc: Internal auxiliary supercell:     5 x     5 x     5  =     125
superc: Number of atoms, orbitals, and projectors:   1250   4250  10000

outcell: Unit cell vectors (Ang):
        4.783281   -0.127203   -0.083269
        3.094723    3.649472   -0.083269
        3.094723    1.383656    3.378028

outcell: Cell vector modules (Ang)   :    4.785696    4.785696    4.785696
outcell: Cell angles (23,13,12) (deg):     51.2173     51.2173     51.2173
outcell: Cell volume (Ang**3)        :     61.4659
<dSpData1D:S at geom step 4
  <sparsity:sparsity for geom step 4
    nrows_g=34 nrows=9 sparsity=4.6090 nnzs=5328, refcount: 7>
  <dData1D:(new from dSpData1D) n=5328, refcount: 1>
refcount: 1>
New_DM. Step:     5
Initializing Density Matrix...
DM after filling with atomic data:
<dSpData2D:(DM initialized from atoms)
  <sparsity:sparsity for geom step 4
    nrows_g=34 nrows=9 sparsity=4.6090 nnzs=5328, refcount: 8>
  <dData2D:(DMatomic) n=5328 m=1, refcount: 1>
refcount: 1>
New grid distribution:   1
           1       1:   15    1:    8    1:    8
           2       1:   15    1:    8    9:   15
           3       1:   15    9:   15    1:    8
           4       1:   15    9:   15    9:   15

InitMesh: MESH =    30 x    30 x    30 =       27000
InitMesh: (bp) =    15 x    15 x    15 =        3375
InitMesh: Mesh cutoff (required, used) =   100.000   144.632 Ry
ExtMesh (bp) on 0 =    79 x    72 x    72 =      409536
New grid distribution:   2
           1       1:   15    1:    7    1:    7
           2       1:   15    1:    8    8:   15
           3       1:   15    8:   15    1:    7
           4       1:   15    9:   15    8:   15
New grid distribution:   3
           1       1:   15    1:    8    1:    8
           2       1:   15    1:    8    9:   15
           3       1:   15    9:   15    1:    8
           4       1:   15    9:   15    9:   15
Setting up quadratic distribution...
ExtMesh (bp) on 0 =    79 x    71 x    71 =      398239
PhiOnMesh: Number of (b)points on node 0 =                  735
PhiOnMesh: nlist on node 0 =                23667

siesta: Eharris(eV) =   -2964.342733


siesta: Eharris(eV) =   -2964.342733


Using DM_out to compute the final energy and forces

siesta: Atomic forces (eV/Ang):
     1   -0.000000   -0.000000    0.000000
     2   -0.000000   -0.000000    0.000000
     3   -0.000000    0.000000    0.000000
     4    0.000000   -0.000000   -0.000000
     5    1.254540   -2.805939   -0.000000
     6   -0.000000    1.683423   -2.571625
     7   -1.254540    1.122516    2.571624
     8   -1.254540    2.805939    0.000000
     9    0.000000   -1.683423    2.571625
    10    1.254540   -1.122516   -2.571624
----------------------------------------
   Tot    0.000000    0.000000    0.000000
----------------------------------------
   Max    2.805939
   Res    1.374567    sqrt( Sum f_i^2 / 3N )
----------------------------------------
   Max    2.805939    constrained

Stress-tensor-Voigt (kbar):       20.83     -171.26     -198.69      107.34       31.42       70.27
(Free)E + p*V (eV/cell)    -2940.2540
Target enthalpy (eV/cell)    -2906.3548

siesta: Stress tensor (static) (eV/Ang**3):
         0.013000    0.066996    0.043856
         0.066996   -0.106891    0.019608
         0.043856    0.019608   -0.124009

siesta: Pressure (static):        116.37233025  kBar

siesta: Stress tensor (total) (eV/Ang**3):
         0.013000    0.066996    0.043856
         0.066996   -0.106891    0.019608
         0.043856    0.019608   -0.124009

siesta: Pressure (total):        116.37233025  kBar

                     ====================================
                        Begin Broyden opt. move =      5
                     ====================================

outcoor: Atomic coordinates (fractional):                   
   -0.00000000   -0.00000000   -0.00000000   1       1  Mg
    0.50000000    0.50000000    0.50000000   1       2  Mg
    0.25000000    0.25000000    0.25000000   2       3  C
   -0.25000000   -0.25000000   -0.25000000   2       4  C
    0.56243980   -0.06243980    0.25000000   3       5  O
    0.25000000    0.56243980   -0.06243980   3       6  O
   -0.06243980    0.25000000    0.56243980   3       7  O
   -0.56243980    0.06243980   -0.25000000   3       8  O
   -0.25000000   -0.56243980    0.06243980   3       9  O
    0.06243980   -0.25000000   -0.56243980   3      10  O
 Kpoints in:          280 . Kpoints trimmed:          280

siesta: k-grid: Number of k-points =   280
siesta: k-grid: Cutoff (effective) =    16.400 Ang
siesta: k-grid: Supercell and displacements
siesta: k-grid:   -8   8   0      0.500
siesta: k-grid:    0   8  -8      0.500
siesta: k-grid:    0   7   0      0.000

superc: Internal auxiliary supercell:     5 x     5 x     5  =     125
superc: Number of atoms, orbitals, and projectors:   1250   4250  10000

outcell: Unit cell vectors (Ang):
        4.699043   -0.144669   -0.094703
        3.025536    3.598342   -0.094703
        3.025536    1.352722    3.335742

outcell: Cell vector modules (Ang)   :    4.702223    4.702223    4.702223
outcell: Cell angles (23,13,12) (deg):     51.6945     51.6945     51.6945
outcell: Cell volume (Ang**3)        :     59.1502
<dSpData1D:S at geom step 5
  <sparsity:sparsity for geom step 5
    nrows_g=34 nrows=9 sparsity=4.6090 nnzs=5328, refcount: 7>
  <dData1D:(new from dSpData1D) n=5328, refcount: 1>
refcount: 1>
New_DM. Step:     6
Initializing Density Matrix...
DM after filling with atomic data:
<dSpData2D:(DM initialized from atoms)
  <sparsity:sparsity for geom step 5
    nrows_g=34 nrows=9 sparsity=4.6090 nnzs=5328, refcount: 8>
  <dData2D:(DMatomic) n=5328 m=1, refcount: 1>
refcount: 1>
New grid distribution:   1
           1       1:   15    1:    8    1:    8
           2       1:   15    1:    8    9:   15
           3       1:   15    9:   15    1:    8
           4       1:   15    9:   15    9:   15

InitMesh: MESH =    30 x    30 x    30 =       27000
InitMesh: (bp) =    15 x    15 x    15 =        3375
InitMesh: Mesh cutoff (required, used) =   100.000   150.684 Ry
ExtMesh (bp) on 0 =    79 x    72 x    72 =      409536
New grid distribution:   2
           1       1:   15    1:    7    1:    8
           2       1:   15    1:    8    9:   15
           3       1:   15    8:   15    1:    8
           4       1:   15    9:   15    9:   15
New grid distribution:   3
           1       1:   15    1:    8    1:    8
           2       1:   15    1:    8    9:   15
           3       1:   15    9:   15    1:    8
           4       1:   15    9:   15    9:   15
Setting up quadratic distribution...
ExtMesh (bp) on 0 =    79 x    71 x    72 =      403848
PhiOnMesh: Number of (b)points on node 0 =                  840
PhiOnMesh: nlist on node 0 =                27833

siesta: Eharris(eV) =   -2962.996008


siesta: Eharris(eV) =   -2962.996008


Using DM_out to compute the final energy and forces

siesta: Atomic forces (eV/Ang):
     1    0.000000    0.000000    0.000000
     2    0.000000    0.000000    0.000000
     3   -0.000000    0.000000    0.000000
     4    0.000000   -0.000000   -0.000000
     5    0.983625   -2.200001   -0.000000
     6   -0.000000    1.319890   -2.016287
     7   -0.983624    0.880110    2.016286
     8   -0.983625    2.200001    0.000000
     9    0.000000   -1.319890    2.016287
    10    0.983624   -0.880110   -2.016286
----------------------------------------
   Tot    0.000000    0.000000   -0.000000
----------------------------------------
   Max    2.200001
   Res    1.077731    sqrt( Sum f_i^2 / 3N )
----------------------------------------
   Max    2.200001    constrained

Stress-tensor-Voigt (kbar):     -132.28     -308.34     -333.47       98.38       28.79       64.40
(Free)E + p*V (eV/cell)    -2933.2514
Target enthalpy (eV/cell)    -2905.8592

siesta: Stress tensor (static) (eV/Ang**3):
        -0.082565    0.061403    0.040195
         0.061403   -0.192447    0.017971
         0.040195    0.017971   -0.208136

siesta: Pressure (static):        258.03228577  kBar

siesta: Stress tensor (total) (eV/Ang**3):
        -0.082565    0.061403    0.040195
         0.061403   -0.192447    0.017971
         0.040195    0.017971   -0.208136

siesta: Pressure (total):        258.03228577  kBar

                     ====================================
                        Begin Broyden opt. move =      6
                     ====================================

outcoor: Atomic coordinates (fractional):                   
   -0.00000000   -0.00000000    0.00000000   1       1  Mg
    0.50000000    0.50000000    0.50000000   1       2  Mg
    0.25000000    0.25000000    0.25000000   2       3  C
   -0.25000000   -0.25000000   -0.25000000   2       4  C
    0.56263919   -0.06263919    0.25000000   3       5  O
    0.25000000    0.56263919   -0.06263919   3       6  O
   -0.06263919    0.25000000    0.56263919   3       7  O
   -0.56263919    0.06263919   -0.25000000   3       8  O
   -0.25000000   -0.56263919    0.06263919   3       9  O
    0.06263919   -0.25000000   -0.56263919   3      10  O
 Kpoints in:          280 . Kpoints trimmed:          280

siesta: k-grid: Number of k-points =   280
siesta: k-grid: Cutoff (effective) =    16.406 Ang
siesta: k-grid: Supercell and displacements
siesta: k-grid:   -8   8   0      0.500
siesta: k-grid:    0   8  -8      0.500
siesta: k-grid:    0   7   0      0.000

superc: Internal auxiliary supercell:     5 x     5 x     5  =     125
superc: Number of atoms, orbitals, and projectors:   1250   4250  10000

outcell: Unit cell vectors (Ang):
        4.686984   -0.150791   -0.098710
        3.012933    3.593437   -0.098710
        3.012933    1.347087    3.332850

outcell: Cell vector modules (Ang)   :    4.690448    4.690448    4.690448
outcell: Cell angles (23,13,12) (deg):     51.8521     51.8521     51.8521
outcell: Cell volume (Ang**3)        :     58.9835
<dSpData1D:S at geom step 6
  <sparsity:sparsity for geom step 6
    nrows_g=34 nrows=9 sparsity=4.6090 nnzs=5328, refcount: 7>
  <dData1D:(new from dSpData1D) n=5328, refcount: 1>
refcount: 1>
New_DM. Step:     7
Initializing Density Matrix...
DM after filling with atomic data:
<dSpData2D:(DM initialized from atoms)
  <sparsity:sparsity for geom step 6
    nrows_g=34 nrows=9 sparsity=4.6090 nnzs=5328, refcount: 8>
  <dData2D:(DMatomic) n=5328 m=1, refcount: 1>
refcount: 1>
New grid distribution:   1
           1       1:   15    1:    8    1:    8
           2       1:   15    1:    8    9:   15
           3       1:   15    9:   15    1:    8
           4       1:   15    9:   15    9:   15

InitMesh: MESH =    30 x    30 x    30 =       27000
InitMesh: (bp) =    15 x    15 x    15 =        3375
InitMesh: Mesh cutoff (required, used) =   100.000   151.734 Ry
ExtMesh (bp) on 0 =    79 x    72 x    72 =      409536
New grid distribution:   2
           1       1:   15    1:    7    1:    8
           2       1:   15    1:    8    9:   15
           3       1:   15    8:   15    1:    8
           4       1:   15    9:   15    9:   15
New grid distribution:   3
           1       1:   15    1:    8    1:    8
           2       1:   15    1:    8    9:   15
           3       1:   15    9:   15    1:    8
           4       1:   15    9:   15    9:   15
Setting up quadratic distribution...
ExtMesh (bp) on 0 =    79 x    71 x    72 =      403848
PhiOnMesh: Number of (b)points on node 0 =                  840
PhiOnMesh: nlist on node 0 =                27931

siesta: Eharris(eV) =   -2962.916975


siesta: Eharris(eV) =   -2962.916975


Using DM_out to compute the final energy and forces

siesta: Atomic forces (eV/Ang):
     1    0.000000   -0.000000   -0.000000
     2    0.000000    0.000000   -0.000000
     3   -0.000000    0.000000    0.000000
     4    0.000000   -0.000000   -0.000000
     5    0.925098   -2.069099   -0.000000
     6   -0.000000    1.241355   -1.896316
     7   -0.925098    0.827743    1.896315
     8   -0.925098    2.069099    0.000000
     9    0.000000   -1.241355    1.896316
    10    0.925098   -0.827743   -1.896315
----------------------------------------
   Tot   -0.000000   -0.000000   -0.000000
----------------------------------------
   Max    2.069099
   Res    1.013605    sqrt( Sum f_i^2 / 3N )
----------------------------------------
   Max    2.069099    constrained

Stress-tensor-Voigt (kbar):     -148.47     -312.32     -335.71       91.56       26.80       59.94
(Free)E + p*V (eV/cell)    -2932.8577
Target enthalpy (eV/cell)    -2905.8176

siesta: Stress tensor (static) (eV/Ang**3):
        -0.092664    0.057147    0.037409
         0.057147   -0.194930    0.016726
         0.037409    0.016726   -0.209532

siesta: Pressure (static):        265.49750986  kBar

siesta: Stress tensor (total) (eV/Ang**3):
        -0.092664    0.057147    0.037409
         0.057147   -0.194930    0.016726
         0.037409    0.016726   -0.209532

siesta: Pressure (total):        265.49750986  kBar

                     ====================================
                        Begin Broyden opt. move =      7
                     ====================================

outcoor: Atomic coordinates (fractional):                   
   -0.00000000    0.00000000    0.00000000   1       1  Mg
    0.50000000    0.50000000    0.50000000   1       2  Mg
    0.24999999    0.25000001    0.25000000   2       3  C
   -0.24999999   -0.25000001   -0.25000000   2       4  C
    0.57058592   -0.07058588    0.25000001   3       5  O
    0.24999999    0.57058587   -0.07058592   3       6  O
   -0.07058589    0.25000000    0.57058590   3       7  O
   -0.57058592    0.07058588   -0.25000001   3       8  O
   -0.24999999   -0.57058587    0.07058592   3       9  O
    0.07058589   -0.25000000   -0.57058590   3      10  O
 Kpoints in:          256 . Kpoints trimmed:          256

siesta: k-grid: Number of k-points =   256
siesta: k-grid: Cutoff (effective) =    15.986 Ang
siesta: k-grid: Supercell and displacements
siesta: k-grid:   -8   8   0      0.500
siesta: k-grid:    0   8  -8      0.500
siesta: k-grid:    0   8   0      0.500

superc: Internal auxiliary supercell:     5 x     5 x     5  =     125
superc: Number of atoms, orbitals, and projectors:   1250   4250  10000

outcell: Unit cell vectors (Ang):
        4.257643   -0.285307   -0.186766
        2.626401    3.363174   -0.186766
        2.626401    1.174268    3.157043

outcell: Cell vector modules (Ang)   :    4.271277    4.271277    4.271277
outcell: Cell angles (23,13,12) (deg):     55.7883     55.7883     55.7883
outcell: Cell volume (Ang**3)        :     49.7194
<dSpData1D:S at geom step 7
  <sparsity:sparsity for geom step 7
    nrows_g=34 nrows=9 sparsity=4.7595 nnzs=5502, refcount: 7>
  <dData1D:(new from dSpData1D) n=5502, refcount: 1>
refcount: 1>
New_DM. Step:     8
Initializing Density Matrix...
DM after filling with atomic data:
<dSpData2D:(DM initialized from atoms)
  <sparsity:sparsity for geom step 7
    nrows_g=34 nrows=9 sparsity=4.7595 nnzs=5502, refcount: 8>
  <dData2D:(DMatomic) n=5502 m=1, refcount: 1>
refcount: 1>
New grid distribution:   1
           1       1:   12    1:    6    1:    6
           2       1:   12    1:    6    7:   12
           3       1:   12    7:   12    1:    6
           4       1:   12    7:   12    7:   12

InitMesh: MESH =    24 x    24 x    24 =       13824
InitMesh: (bp) =    12 x    12 x    12 =        1728
InitMesh: Mesh cutoff (required, used) =   100.000   123.217 Ry
ExtMesh (bp) on 0 =    64 x    58 x    58 =      215296
New grid distribution:   2
           1       1:   12    1:    6    1:    6
           2       1:   12    1:    6    7:   12
           3       1:   12    7:   12    1:    6
           4       1:   12    7:   12    7:   12
New grid distribution:   3
           1       1:   12    1:    6    1:    6
           2       1:   12    1:    6    7:   12
           3       1:   12    7:   12    1:    6
           4       1:   12    7:   12    7:   12
Setting up quadratic distribution...
ExtMesh (bp) on 0 =    64 x    58 x    58 =      215296
PhiOnMesh: Number of (b)points on node 0 =                  432
PhiOnMesh: nlist on node 0 =                17312

siesta: Eharris(eV) =   -2952.856575


siesta: Eharris(eV) =   -2952.856575


Using DM_out to compute the final energy and forces

siesta: Atomic forces (eV/Ang):
     1   -0.000000   -0.000000   -0.000000
     2   -0.000000    0.000000   -0.000000
     3    0.000000   -0.000001    0.000001
     4   -0.000000    0.000001   -0.000001
     5   -0.612934    1.370899   -0.000000
     6    0.000002   -0.822470    1.256422
     7    0.612929   -0.548427   -1.256416
     8    0.612934   -1.370899    0.000000
     9   -0.000002    0.822470   -1.256422
    10   -0.612929    0.548427    1.256416
----------------------------------------
   Tot   -0.000000   -0.000000   -0.000000
----------------------------------------
   Max    1.370899
   Res    0.671572    sqrt( Sum f_i^2 / 3N )
----------------------------------------
   Max    1.370899    constrained

Stress-tensor-Voigt (kbar):    -1329.61    -1230.76    -1216.64      -55.24      -16.17      -36.16
(Free)E + p*V (eV/cell)    -2890.2368
Target enthalpy (eV/cell)    -2898.2743

siesta: Stress tensor (static) (eV/Ang**3):
        -0.829871   -0.034479   -0.022570
        -0.034479   -0.768170   -0.010091
        -0.022570   -0.010091   -0.759361

siesta: Pressure (static):       1259.00541479  kBar

siesta: Stress tensor (total) (eV/Ang**3):
        -0.829871   -0.034479   -0.022570
        -0.034479   -0.768170   -0.010091
        -0.022570   -0.010091   -0.759361

siesta: Pressure (total):       1259.00541479  kBar
Cycling the Broyden process...

                     ====================================
                        Begin Broyden opt. move =      8
                     ====================================

outcoor: Atomic coordinates (fractional):                   
   -0.00000000   -0.00000000    0.00000000   1       1  Mg
    0.50000000    0.50000000    0.50000000   1       2  Mg
    0.24999999    0.25000000    0.25000000   2       3  C
   -0.24999999   -0.25000000   -0.25000000   2       4  C
    0.56639085   -0.06639083    0.25000000   3       5  O
    0.25000000    0.56639082   -0.06639085   3       6  O
   -0.06639084    0.25000000    0.56639085   3       7  O
   -0.56639085    0.06639083   -0.25000000   3       8  O
   -0.25000000   -0.56639082    0.06639085   3       9  O
    0.06639084   -0.25000000   -0.56639085   3      10  O
 Kpoints in:          280 . Kpoints trimmed:          280

siesta: k-grid: Number of k-points =   280
siesta: k-grid: Cutoff (effective) =    15.399 Ang
siesta: k-grid: Supercell and displacements
siesta: k-grid:   -8   8   0      0.500
siesta: k-grid:    0   8  -8      0.500
siesta: k-grid:    0   7   0      0.000

superc: Internal auxiliary supercell:     5 x     5 x     5  =     125
superc: Number of atoms, orbitals, and projectors:   1250   4250  10000

outcell: Unit cell vectors (Ang):
        4.390013   -0.245785   -0.160894
        2.744119    3.435467   -0.160894
        2.744119    1.226900    3.212949

outcell: Cell vector modules (Ang)   :    4.399831    4.399830    4.399831
outcell: Cell angles (23,13,12) (deg):     54.5484     54.5484     54.5484
outcell: Cell volume (Ang**3)        :     52.5741
<dSpData1D:S at geom step 8
  <sparsity:sparsity for geom step 8
    nrows_g=34 nrows=9 sparsity=4.7595 nnzs=5502, refcount: 7>
  <dData1D:(new from dSpData1D) n=5502, refcount: 1>
refcount: 1>
New_DM. Step:     9
Initializing Density Matrix...
DM after filling with atomic data:
<dSpData2D:(DM initialized from atoms)
  <sparsity:sparsity for geom step 8
    nrows_g=34 nrows=9 sparsity=4.7595 nnzs=5502, refcount: 8>
  <dData2D:(DMatomic) n=5502 m=1, refcount: 1>
refcount: 1>
New grid distribution:   1
           1       1:   12    1:    6    1:    6
           2       1:   12    1:    6    7:   12
           3       1:   12    7:   12    1:    6
           4       1:   12    7:   12    7:   12

InitMesh: MESH =    24 x    24 x    24 =       13824
InitMesh: (bp) =    12 x    12 x    12 =        1728
InitMesh: Mesh cutoff (required, used) =   100.000   114.213 Ry
ExtMesh (bp) on 0 =    64 x    58 x    58 =      215296
New grid distribution:   2
           1       1:   12    1:    6    1:    6
           2       1:   12    1:    6    7:   12
           3       1:   12    7:   12    1:    6
           4       1:   12    7:   12    7:   12
New grid distribution:   3
           1       1:   12    1:    6    1:    6
           2       1:   12    1:    6    7:   12
           3       1:   12    7:   12    1:    6
           4       1:   12    7:   12    7:   12
Setting up quadratic distribution...
ExtMesh (bp) on 0 =    64 x    58 x    58 =      215296
PhiOnMesh: Number of (b)points on node 0 =                  432
PhiOnMesh: nlist on node 0 =                16519

siesta: Eharris(eV) =   -2957.037118


siesta: Eharris(eV) =   -2957.037118


Using DM_out to compute the final energy and forces

siesta: Atomic forces (eV/Ang):
     1    0.000000    0.000000    0.000000
     2    0.000000   -0.000000    0.000000
     3   -0.000001    0.000001    0.000003
     4    0.000001   -0.000001   -0.000003
     5    0.151493   -0.338833   -0.000000
     6    0.000000    0.203282   -0.310538
     7   -0.151493    0.135550    0.310538
     8   -0.151493    0.338833    0.000000
     9   -0.000000   -0.203282    0.310538
    10    0.151493   -0.135550   -0.310538
----------------------------------------
   Tot   -0.000000   -0.000000   -0.000000
----------------------------------------
   Max    0.338833
   Res    0.165987    sqrt( Sum f_i^2 / 3N )
----------------------------------------
   Max    0.338833    constrained

Stress-tensor-Voigt (kbar):     -876.74     -883.77     -884.78        3.93        1.15        2.57
(Free)E + p*V (eV/cell)    -2906.0053
Target enthalpy (eV/cell)    -2902.1256

siesta: Stress tensor (static) (eV/Ang**3):
        -0.547214    0.002452    0.001605
         0.002452   -0.551602    0.000718
         0.001605    0.000718   -0.552228

siesta: Pressure (static):        881.76404224  kBar

siesta: Stress tensor (total) (eV/Ang**3):
        -0.547214    0.002452    0.001605
         0.002452   -0.551602    0.000718
         0.001605    0.000718   -0.552228

siesta: Pressure (total):        881.76404224  kBar
Cycling the Broyden process...

                     ====================================
                        Begin Broyden opt. move =      9
                     ====================================

outcoor: Atomic coordinates (fractional):                   
   -0.00000000   -0.00000000    0.00000000   1       1  Mg
    0.50000000    0.50000000    0.50000000   1       2  Mg
    0.24999999    0.25000000    0.25000001   2       3  C
   -0.24999999   -0.25000000   -0.25000001   2       4  C
    0.56835265   -0.06835263    0.25000000   3       5  O
    0.25000000    0.56835262   -0.06835264   3       6  O
   -0.06835264    0.25000000    0.56835265   3       7  O
   -0.56835265    0.06835263   -0.25000000   3       8  O
   -0.25000000   -0.56835262    0.06835264   3       9  O
    0.06835264   -0.25000000   -0.56835265   3      10  O
 Kpoints in:          280 . Kpoints trimmed:          280

siesta: k-grid: Number of k-points =   280
siesta: k-grid: Cutoff (effective) =    15.238 Ang
siesta: k-grid: Supercell and displacements
siesta: k-grid:   -8   8   0      0.500
siesta: k-grid:    0   8  -8      0.500
siesta: k-grid:    0   7   0      0.000

superc: Internal auxiliary supercell:     5 x     5 x     5  =     125
superc: Number of atoms, orbitals, and projectors:   1250   4250  10000

outcell: Unit cell vectors (Ang):
        4.343428   -0.251568   -0.164680
        2.708746    3.404607   -0.164680
        2.708746    1.211085    3.186180

outcell: Cell vector modules (Ang)   :    4.353823    4.353823    4.353823
outcell: Cell angles (23,13,12) (deg):     54.7661     54.7661     54.7661
outcell: Cell volume (Ang**3)        :     51.2443
<dSpData1D:S at geom step 9
  <sparsity:sparsity for geom step 9
    nrows_g=34 nrows=9 sparsity=4.7595 nnzs=5502, refcount: 7>
  <dData1D:(new from dSpData1D) n=5502, refcount: 1>
refcount: 1>
New_DM. Step:    10
Initializing Density Matrix...
DM after filling with atomic data:
<dSpData2D:(DM initialized from atoms)
  <sparsity:sparsity for geom step 9
    nrows_g=34 nrows=9 sparsity=4.7595 nnzs=5502, refcount: 8>
  <dData2D:(DMatomic) n=5502 m=1, refcount: 1>
refcount: 1>
New grid distribution:   1
           1       1:   12    1:    6    1:    6
           2       1:   12    1:    6    7:   12
           3       1:   12    7:   12    1:    6
           4       1:   12    7:   12    7:   12

InitMesh: MESH =    24 x    24 x    24 =       13824
InitMesh: (bp) =    12 x    12 x    12 =        1728
InitMesh: Mesh cutoff (required, used) =   100.000   116.975 Ry
ExtMesh (bp) on 0 =    64 x    58 x    58 =      215296
New grid distribution:   2
           1       1:   12    1:    6    1:    6
           2       1:   12    1:    6    7:   12
           3       1:   12    7:   12    1:    6
           4       1:   12    7:   12    7:   12
New grid distribution:   3
           1       1:   12    1:    6    1:    6
           2       1:   12    1:    6    7:   12
           3       1:   12    7:   12    1:    6
           4       1:   12    7:   12    7:   12
Setting up quadratic distribution...
ExtMesh (bp) on 0 =    64 x    58 x    58 =      215296
PhiOnMesh: Number of (b)points on node 0 =                  432
PhiOnMesh: nlist on node 0 =                16919

siesta: Eharris(eV) =   -2955.232217


siesta: Eharris(eV) =   -2955.232217


Using DM_out to compute the final energy and forces

siesta: Atomic forces (eV/Ang):
     1   -0.000000   -0.000000   -0.000000
     2   -0.000000    0.000000   -0.000000
     3   -0.000000    0.000000    0.000001
     4    0.000000   -0.000000   -0.000001
     5   -0.074290    0.166160   -0.000000
     6    0.000000   -0.099689    0.152285
     7    0.074290   -0.066472   -0.152283
     8    0.074290   -0.166160    0.000000
     9   -0.000000    0.099689   -0.152285
    10   -0.074290    0.066472    0.152283
----------------------------------------
   Tot   -0.000000   -0.000000   -0.000000
----------------------------------------
   Max    0.166160
   Res    0.081398    sqrt( Sum f_i^2 / 3N )
----------------------------------------
   Max    0.166160    constrained

Stress-tensor-Voigt (kbar):    -1036.83    -1066.08    -1070.26       16.35        4.78       10.70
(Free)E + p*V (eV/cell)    -2898.7501
Target enthalpy (eV/cell)    -2900.5963

siesta: Stress tensor (static) (eV/Ang**3):
        -0.647130    0.010204    0.006680
         0.010204   -0.665390    0.002986
         0.006680    0.002986   -0.667997

siesta: Pressure (static):       1057.72400855  kBar

siesta: Stress tensor (total) (eV/Ang**3):
        -0.647130    0.010204    0.006680
         0.010204   -0.665390    0.002986
         0.006680    0.002986   -0.667997

siesta: Pressure (total):       1057.72400855  kBar
Cycling the Broyden process...

                     ====================================
                        Begin Broyden opt. move =     10
                     ====================================

outcoor: Atomic coordinates (fractional):                   
   -0.00000000   -0.00000000    0.00000000   1       1  Mg
    0.50000000    0.50000000    0.50000000   1       2  Mg
    0.24999999    0.25000000    0.25000001   2       3  C
   -0.24999999   -0.25000000   -0.25000001   2       4  C
    0.56624936   -0.06624933    0.25000000   3       5  O
    0.25000000    0.56624932   -0.06624935   3       6  O
   -0.06624935    0.25000000    0.56624935   3       7  O
   -0.56624936    0.06624933   -0.25000000   3       8  O
   -0.25000000   -0.56624932    0.06624935   3       9  O
    0.06624935   -0.25000000   -0.56624935   3      10  O
 Kpoints in:          280 . Kpoints trimmed:          280

siesta: k-grid: Number of k-points =   280
siesta: k-grid: Cutoff (effective) =    15.288 Ang
siesta: k-grid: Supercell and displacements
siesta: k-grid:   -8   8   0      0.500
siesta: k-grid:    0   8  -8      0.500
siesta: k-grid:    0   7   0      0.000

superc: Internal auxiliary supercell:     5 x     5 x     5  =     125
superc: Number of atoms, orbitals, and projectors:   1250   4250  10000

outcell: Unit cell vectors (Ang):
        4.356731   -0.260934   -0.170811
        2.710637    3.420766   -0.170811
        2.710637    1.211930    3.203442

outcell: Cell vector modules (Ang)   :    4.367879    4.367879    4.367879
outcell: Cell angles (23,13,12) (deg):     54.9883     54.9883     54.9883
outcell: Cell volume (Ang**3)        :     52.0532
<dSpData1D:S at geom step 10
  <sparsity:sparsity for geom step 10
    nrows_g=34 nrows=9 sparsity=4.7595 nnzs=5502, refcount: 7>
  <dData1D:(new from dSpData1D) n=5502, refcount: 1>
refcount: 1>
New_DM. Step:    11
Initializing Density Matrix...
DM after filling with atomic data:
<dSpData2D:(DM initialized from atoms)
  <sparsity:sparsity for geom step 10
    nrows_g=34 nrows=9 sparsity=4.7595 nnzs=5502, refcount: 8>
  <dData2D:(DMatomic) n=5502 m=1, refcount: 1>
refcount: 1>
New grid distribution:   1
           1       1:   12    1:    6    1:    6
           2       1:   12    1:    6    7:   12
           3       1:   12    7:   12    1:    6
           4       1:   12    7:   12    7:   12

InitMesh: MESH =    24 x    24 x    24 =       13824
InitMesh: (bp) =    12 x    12 x    12 =        1728
InitMesh: Mesh cutoff (required, used) =   100.000   116.566 Ry
ExtMesh (bp) on 0 =    64 x    58 x    58 =      215296
New grid distribution:   2
           1       1:   12    1:    6    1:    6
           2       1:   12    1:    6    7:   12
           3       1:   12    7:   12    1:    6
           4       1:   12    7:   12    7:   12
New grid distribution:   3
           1       1:   12    1:    6    1:    6
           2       1:   12    1:    6    7:   12
           3       1:   12    7:   12    1:    6
           4       1:   12    7:   12    7:   12
Setting up quadratic distribution...
ExtMesh (bp) on 0 =    64 x    58 x    58 =      215296
PhiOnMesh: Number of (b)points on node 0 =                  432
PhiOnMesh: nlist on node 0 =                16687

siesta: Eharris(eV) =   -2956.390915


siesta: Eharris(eV) =   -2956.390915


Using DM_out to compute the final energy and forces

siesta: Atomic forces (eV/Ang):
     1   -0.000000   -0.000000   -0.000000
     2   -0.000000    0.000000   -0.000000
     3   -0.000000   -0.000000    0.000001
     4    0.000000    0.000000   -0.000001
     5    0.079826   -0.178543   -0.000000
     6    0.000001    0.107116   -0.163631
     7   -0.079827    0.071426    0.163634
     8   -0.079826    0.178543    0.000000
     9   -0.000001   -0.107116    0.163631
    10    0.079827   -0.071426   -0.163634
----------------------------------------
   Tot   -0.000000   -0.000000   -0.000000
----------------------------------------
   Max    0.178543
   Res    0.087464    sqrt( Sum f_i^2 / 3N )
----------------------------------------
   Max    0.178543    constrained

Stress-tensor-Voigt (kbar):     -925.15     -925.80     -925.90        0.37        0.11        0.24
(Free)E + p*V (eV/cell)    -2904.0620
Target enthalpy (eV/cell)    -2901.6454

siesta: Stress tensor (static) (eV/Ang**3):
        -0.577426    0.000228    0.000150
         0.000228   -0.577835    0.000067
         0.000150    0.000067   -0.577894

siesta: Pressure (static):        925.61699632  kBar

siesta: Stress tensor (total) (eV/Ang**3):
        -0.577426    0.000228    0.000150
         0.000228   -0.577835    0.000067
         0.000150    0.000067   -0.577894

siesta: Pressure (total):        925.61699632  kBar
Cycling the Broyden process...

                     ====================================
                        Begin Broyden opt. move =     11
                     ====================================

outcoor: Atomic coordinates (fractional):                   
   -0.00000000   -0.00000000    0.00000000   1       1  Mg
    0.50000000    0.50000000    0.50000000   1       2  Mg
    0.24999999    0.25000000    0.25000001   2       3  C
   -0.24999999   -0.25000000   -0.25000001   2       4  C
    0.56713432   -0.06713430    0.25000000   3       5  O
    0.25000000    0.56713428   -0.06713431   3       6  O
   -0.06713431    0.25000000    0.56713432   3       7  O
   -0.56713432    0.06713430   -0.25000000   3       8  O
   -0.25000000   -0.56713428    0.06713431   3       9  O
    0.06713431   -0.25000000   -0.56713432   3      10  O
 Kpoints in:          280 . Kpoints trimmed:          280

siesta: k-grid: Number of k-points =   280
siesta: k-grid: Cutoff (effective) =    15.215 Ang
siesta: k-grid: Supercell and displacements
siesta: k-grid:   -8   8   0      0.500
siesta: k-grid:    0   8  -8      0.500
siesta: k-grid:    0   7   0      0.000

superc: Internal auxiliary supercell:     5 x     5 x     5  =     125
superc: Number of atoms, orbitals, and projectors:   1250   4250  10000

outcell: Unit cell vectors (Ang):
        4.335873   -0.262746   -0.171997
        2.695378    3.406430   -0.171997
        2.695378    1.205108    3.190778

outcell: Cell vector modules (Ang)   :    4.347230    4.347230    4.347230
outcell: Cell angles (23,13,12) (deg):     55.0677     55.0677     55.0677
outcell: Cell volume (Ang**3)        :     51.4281
<dSpData1D:S at geom step 11
  <sparsity:sparsity for geom step 11
    nrows_g=34 nrows=9 sparsity=4.7595 nnzs=5502, refcount: 7>
  <dData1D:(new from dSpData1D) n=5502, refcount: 1>
refcount: 1>
New_DM. Step:    12
Initializing Density Matrix...
DM after filling with atomic data:
<dSpData2D:(DM initialized from atoms)
  <sparsity:sparsity for geom step 11
    nrows_g=34 nrows=9 sparsity=4.7595 nnzs=5502, refcount: 8>
  <dData2D:(DMatomic) n=5502 m=1, refcount: 1>
refcount: 1>
New grid distribution:   1
           1       1:   12    1:    6    1:    6
           2       1:   12    1:    6    7:   12
           3       1:   12    7:   12    1:    6
           4       1:   12    7:   12    7:   12

InitMesh: MESH =    24 x    24 x    24 =       13824
InitMesh: (bp) =    12 x    12 x    12 =        1728
InitMesh: Mesh cutoff (required, used) =   100.000   117.801 Ry
ExtMesh (bp) on 0 =    64 x    58 x    58 =      215296
New grid distribution:   2
           1       1:   12    1:    6    1:    6
           2       1:   12    1:    6    7:   12
           3       1:   12    7:   12    1:    6
           4       1:   12    7:   12    7:   12
New grid distribution:   3
           1       1:   12    1:    6    1:    6
           2       1:   12    1:    6    7:   12
           3       1:   12    7:   12    1:    6
           4       1:   12    7:   12    7:   12
Setting up quadratic distribution...
ExtMesh (bp) on 0 =    64 x    58 x    58 =      215296
PhiOnMesh: Number of (b)points on node 0 =                  432
PhiOnMesh: nlist on node 0 =                16851

siesta: Eharris(eV) =   -2955.531987


siesta: Eharris(eV) =   -2955.531987


Using DM_out to compute the final energy and forces

siesta: Atomic forces (eV/Ang):
     1    0.000000    0.000000    0.000000
     2    0.000000    0.000000    0.000000
     3   -0.000001    0.000000    0.000002
     4    0.000001   -0.000000   -0.000002
     5    0.023116   -0.051702   -0.000000
     6    0.000000    0.031017   -0.047384
     7   -0.023116    0.020683    0.047386
     8   -0.023116    0.051702    0.000000
     9   -0.000000   -0.031017    0.047384
    10    0.023116   -0.020683   -0.047386
----------------------------------------
   Tot   -0.000000   -0.000000   -0.000000
----------------------------------------
   Max    0.051702
   Res    0.025328    sqrt( Sum f_i^2 / 3N )
----------------------------------------
   Max    0.051702    constrained

Stress-tensor-Voigt (kbar):    -1052.39    -1028.28    -1024.84      -13.47       -3.94       -8.82
(Free)E + p*V (eV/cell)    -2899.7961
Target enthalpy (eV/cell)    -2900.9250

siesta: Stress tensor (static) (eV/Ang**3):
        -0.656843   -0.008410   -0.005505
        -0.008410   -0.641794   -0.002461
        -0.005505   -0.002461   -0.639645

siesta: Pressure (static):       1035.16798455  kBar

siesta: Stress tensor (total) (eV/Ang**3):
        -0.656843   -0.008410   -0.005505
        -0.008410   -0.641794   -0.002461
        -0.005505   -0.002461   -0.639645

siesta: Pressure (total):       1035.16798455  kBar
Cycling the Broyden process...

                     ====================================
                        Begin Broyden opt. move =     12
                     ====================================

outcoor: Atomic coordinates (fractional):                   
   -0.00000000   -0.00000000    0.00000000   1       1  Mg
    0.50000000    0.50000000    0.50000000   1       2  Mg
    0.24999999    0.25000000    0.25000001   2       3  C
   -0.24999999   -0.25000000   -0.25000001   2       4  C
    0.56700217   -0.06700214    0.25000000   3       5  O
    0.25000000    0.56700212   -0.06700215   3       6  O
   -0.06700216    0.25000000    0.56700216   3       7  O
   -0.56700217    0.06700214   -0.25000000   3       8  O
   -0.25000000   -0.56700212    0.06700215   3       9  O
    0.06700216   -0.25000000   -0.56700216   3      10  O
 Kpoints in:          280 . Kpoints trimmed:          280

siesta: k-grid: Number of k-points =   280
siesta: k-grid: Cutoff (effective) =    15.276 Ang
siesta: k-grid: Supercell and displacements
siesta: k-grid:   -8   8   0      0.500
siesta: k-grid:    0   8  -8      0.500
siesta: k-grid:    0   7   0      0.000

superc: Internal auxiliary supercell:     5 x     5 x     5  =     125
superc: Number of atoms, orbitals, and projectors:   1250   4250  10000

outcell: Unit cell vectors (Ang):
        4.353615   -0.257045   -0.168265
        2.711457    3.415850   -0.168265
        2.711457    1.212297    3.197919

outcell: Cell vector modules (Ang)   :    4.364441    4.364441    4.364441
outcell: Cell angles (23,13,12) (deg):     54.8925     54.8925     54.8925
outcell: Cell volume (Ang**3)        :     51.7967
<dSpData1D:S at geom step 12
  <sparsity:sparsity for geom step 12
    nrows_g=34 nrows=9 sparsity=4.7595 nnzs=5502, refcount: 7>
  <dData1D:(new from dSpData1D) n=5502, refcount: 1>
refcount: 1>
New_DM. Step:    13
Initializing Density Matrix...
DM after filling with atomic data:
<dSpData2D:(DM initialized from atoms)
  <sparsity:sparsity for geom step 12
    nrows_g=34 nrows=9 sparsity=4.7595 nnzs=5502, refcount: 8>
  <dData2D:(DMatomic) n=5502 m=1, refcount: 1>
refcount: 1>
New grid distribution:   1
           1       1:   12    1:    6    1:    6
           2       1:   12    1:    6    7:   12
           3       1:   12    7:   12    1:    6
           4       1:   12    7:   12    7:   12

InitMesh: MESH =    24 x    24 x    24 =       13824
InitMesh: (bp) =    12 x    12 x    12 =        1728
InitMesh: Mesh cutoff (required, used) =   100.000   116.602 Ry
ExtMesh (bp) on 0 =    64 x    58 x    58 =      215296
New grid distribution:   2
           1       1:   12    1:    6    1:    6
           2       1:   12    1:    6    7:   12
           3       1:   12    7:   12    1:    6
           4       1:   12    7:   12    7:   12
New grid distribution:   3
           1       1:   12    1:    6    1:    6
           2       1:   12    1:    6    7:   12
           3       1:   12    7:   12    1:    6
           4       1:   12    7:   12    7:   12
Setting up quadratic distribution...
ExtMesh (bp) on 0 =    64 x    58 x    58 =      215296
PhiOnMesh: Number of (b)points on node 0 =                  432
PhiOnMesh: nlist on node 0 =                16719

siesta: Eharris(eV) =   -2956.032800


siesta: Eharris(eV) =   -2956.032800


Using DM_out to compute the final energy and forces

siesta: Atomic forces (eV/Ang):
     1   -0.000000   -0.000000   -0.000000
     2   -0.000000   -0.000000   -0.000000
     3   -0.000000   -0.000000    0.000001
     4    0.000000    0.000000   -0.000001
     5    0.057739   -0.129141    0.000000
     6    0.000000    0.077477   -0.118355
     7   -0.057739    0.051663    0.118358
     8   -0.057739    0.129141   -0.000000
     9   -0.000000   -0.077477    0.118355
    10    0.057739   -0.051663   -0.118358
----------------------------------------
   Tot   -0.000000   -0.000000   -0.000000
----------------------------------------
   Max    0.129141
   Res    0.063263    sqrt( Sum f_i^2 / 3N )
----------------------------------------
   Max    0.129141    constrained

Stress-tensor-Voigt (kbar):     -952.26     -960.28     -961.43        4.48        1.31        2.93
(Free)E + p*V (eV/cell)    -2902.6741
Target enthalpy (eV/cell)    -2901.3160

siesta: Stress tensor (static) (eV/Ang**3):
        -0.594348    0.002798    0.001831
         0.002798   -0.599355    0.000819
         0.001831    0.000819   -0.600070

siesta: Pressure (static):        957.99078057  kBar

siesta: Stress tensor (total) (eV/Ang**3):
        -0.594348    0.002798    0.001831
         0.002798   -0.599355    0.000819
         0.001831    0.000819   -0.600070

siesta: Pressure (total):        957.99078057  kBar
Cycling the Broyden process...

                     ====================================
                        Begin Broyden opt. move =     13
                     ====================================

outcoor: Atomic coordinates (fractional):                   
   -0.00000000   -0.00000000   -0.00000000   1       1  Mg
    0.50000000    0.50000000    0.50000000   1       2  Mg
    0.24999999    0.25000000    0.25000001   2       3  C
   -0.24999999   -0.25000000   -0.25000001   2       4  C
    0.56742851   -0.06742848    0.25000000   3       5  O
    0.25000000    0.56742846   -0.06742849   3       6  O
   -0.06742850    0.25000000    0.56742850   3       7  O
   -0.56742851    0.06742848   -0.25000000   3       8  O
   -0.25000000   -0.56742846    0.06742849   3       9  O
    0.06742850   -0.25000000   -0.56742850   3      10  O
 Kpoints in:          280 . Kpoints trimmed:          280

siesta: k-grid: Number of k-points =   280
siesta: k-grid: Cutoff (effective) =    15.231 Ang
siesta: k-grid: Supercell and displacements
siesta: k-grid:   -8   8   0      0.500
siesta: k-grid:    0   8  -8      0.500
siesta: k-grid:    0   7   0      0.000

superc: Internal auxiliary supercell:     5 x     5 x     5  =     125
superc: Number of atoms, orbitals, and projectors:   1250   4250  10000

outcell: Unit cell vectors (Ang):
        4.340561   -0.260296   -0.170393
        2.700330    3.408289   -0.170393
        2.700330    1.207322    3.191841

outcell: Cell vector modules (Ang)   :    4.351696    4.351695    4.351696
outcell: Cell angles (23,13,12) (deg):     54.9968     54.9968     54.9968
outcell: Cell volume (Ang**3)        :     51.4886
<dSpData1D:S at geom step 13
  <sparsity:sparsity for geom step 13
    nrows_g=34 nrows=9 sparsity=4.7595 nnzs=5502, refcount: 7>
  <dData1D:(new from dSpData1D) n=5502, refcount: 1>
refcount: 1>
New_DM. Step:    14
Initializing Density Matrix...
DM after filling with atomic data:
<dSpData2D:(DM initialized from atoms)
  <sparsity:sparsity for geom step 13
    nrows_g=34 nrows=9 sparsity=4.7595 nnzs=5502, refcount: 8>
  <dData2D:(DMatomic) n=5502 m=1, refcount: 1>
refcount: 1>
New grid distribution:   1
           1       1:   12    1:    6    1:    6
           2       1:   12    1:    6    7:   12
           3       1:   12    7:   12    1:    6
           4       1:   12    7:   12    7:   12

InitMesh: MESH =    24 x    24 x    24 =       13824
InitMesh: (bp) =    12 x    12 x    12 =        1728
InitMesh: Mesh cutoff (required, used) =   100.000   117.448 Ry
ExtMesh (bp) on 0 =    64 x    58 x    58 =      215296
New grid distribution:   2
           1       1:   12    1:    6    1:    6
           2       1:   12    1:    6    7:   12
           3       1:   12    7:   12    1:    6
           4       1:   12    7:   12    7:   12
New grid distribution:   3
           1       1:   12    1:    6    1:    6
           2       1:   12    1:    6    7:   12
           3       1:   12    7:   12    1:    6
           4       1:   12    7:   12    7:   12
Setting up quadratic distribution...
ExtMesh (bp) on 0 =    64 x    58 x    58 =      215296
PhiOnMesh: Number of (b)points on node 0 =                  432
PhiOnMesh: nlist on node 0 =                16844

siesta: Eharris(eV) =   -2955.612786


siesta: Eharris(eV) =   -2955.612786


Using DM_out to compute the final energy and forces

siesta: Atomic forces (eV/Ang):
     1    0.000000    0.000000    0.000000
     2    0.000000    0.000000    0.000000
     3   -0.000000   -0.000000    0.000001
     4    0.000000    0.000000   -0.000001
     5   -0.018461    0.041291   -0.000000
     6    0.000000   -0.024774    0.037844
     7    0.018461   -0.016519   -0.037842
     8    0.018461   -0.041291    0.000000
     9   -0.000000    0.024774   -0.037844
    10   -0.018461    0.016519    0.037842
----------------------------------------
   Tot   -0.000000   -0.000000   -0.000000
----------------------------------------
   Max    0.041291
   Res    0.020228    sqrt( Sum f_i^2 / 3N )
----------------------------------------
   Max    0.041291    constrained

Stress-tensor-Voigt (kbar):    -1014.09    -1001.78    -1000.02       -6.88       -2.01       -4.50
(Free)E + p*V (eV/cell)    -2900.7779
Target enthalpy (eV/cell)    -2900.9481

siesta: Stress tensor (static) (eV/Ang**3):
        -0.632938   -0.004294   -0.002811
        -0.004294   -0.625254   -0.001257
        -0.002811   -0.001257   -0.624157

siesta: Pressure (static):       1005.29607986  kBar

siesta: Stress tensor (total) (eV/Ang**3):
        -0.632938   -0.004294   -0.002811
        -0.004294   -0.625254   -0.001257
        -0.002811   -0.001257   -0.624157

siesta: Pressure (total):       1005.29607986  kBar
Cycling the Broyden process...

                     ====================================
                        Begin Broyden opt. move =     14
                     ====================================

outcoor: Atomic coordinates (fractional):                   
   -0.00000000   -0.00000000   -0.00000000   1       1  Mg
    0.50000000    0.50000000    0.50000000   1       2  Mg
    0.24999998    0.25000000    0.25000001   2       3  C
   -0.24999998   -0.25000000   -0.25000001   2       4  C
    0.56746955   -0.06746952    0.25000000   3       5  O
    0.25000000    0.56746950   -0.06746953   3       6  O
   -0.06746954    0.25000000    0.56746955   3       7  O
   -0.56746955    0.06746952   -0.25000000   3       8  O
   -0.25000000   -0.56746950    0.06746953   3       9  O
    0.06746954   -0.25000000   -0.56746955   3      10  O
 Kpoints in:          280 . Kpoints trimmed:          280

siesta: k-grid: Number of k-points =   280
siesta: k-grid: Cutoff (effective) =    15.255 Ang
siesta: k-grid: Supercell and displacements
siesta: k-grid:   -8   8   0      0.500
siesta: k-grid:    0   8  -8      0.500
siesta: k-grid:    0   7   0      0.000

superc: Internal auxiliary supercell:     5 x     5 x     5  =     125
superc: Number of atoms, orbitals, and projectors:   1250   4250  10000

outcell: Unit cell vectors (Ang):
        4.347687   -0.256143   -0.167675
        2.708176    3.410831   -0.167675
        2.708176    1.210830    3.193082

outcell: Cell vector modules (Ang)   :    4.358452    4.358451    4.358452
outcell: Cell angles (23,13,12) (deg):     54.8783     54.8783     54.8783
outcell: Cell volume (Ang**3)        :     51.5639
<dSpData1D:S at geom step 14
  <sparsity:sparsity for geom step 14
    nrows_g=34 nrows=9 sparsity=4.7595 nnzs=5502, refcount: 7>
  <dData1D:(new from dSpData1D) n=5502, refcount: 1>
refcount: 1>
New_DM. Step:    15
Initializing Density Matrix...
DM after filling with atomic data:
<dSpData2D:(DM initialized from atoms)
  <sparsity:sparsity for geom step 14
    nrows_g=34 nrows=9 sparsity=4.7595 nnzs=5502, refcount: 8>
  <dData2D:(DMatomic) n=5502 m=1, refcount: 1>
refcount: 1>
New grid distribution:   1
           1       1:   12    1:    6    1:    6
           2       1:   12    1:    6    7:   12
           3       1:   12    7:   12    1:    6
           4       1:   12    7:   12    7:   12

InitMesh: MESH =    24 x    24 x    24 =       13824
InitMesh: (bp) =    12 x    12 x    12 =        1728
InitMesh: Mesh cutoff (required, used) =   100.000   116.900 Ry
ExtMesh (bp) on 0 =    64 x    58 x    58 =      215296
New grid distribution:   2
           1       1:   12    1:    6    1:    6
           2       1:   12    1:    6    7:   12
           3       1:   12    7:   12    1:    6
           4       1:   12    7:   12    7:   12
New grid distribution:   3
           1       1:   12    1:    6    1:    6
           2       1:   12    1:    6    7:   12
           3       1:   12    7:   12    1:    6
           4       1:   12    7:   12    7:   12
Setting up quadratic distribution...
ExtMesh (bp) on 0 =    64 x    58 x    58 =      215296
PhiOnMesh: Number of (b)points on node 0 =                  432
PhiOnMesh: nlist on node 0 =                16816

siesta: Eharris(eV) =   -2955.707032


siesta: Eharris(eV) =   -2955.707032


Using DM_out to compute the final energy and forces

siesta: Atomic forces (eV/Ang):
     1   -0.000000   -0.000000   -0.000000
     2   -0.000000   -0.000000   -0.000000
     3   -0.000000   -0.000000    0.000001
     4    0.000000    0.000000   -0.000001
     5    0.013311   -0.029771    0.000000
     6    0.000000    0.017860   -0.027283
     7   -0.013311    0.011910    0.027286
     8   -0.013311    0.029771   -0.000000
     9   -0.000000   -0.017860    0.027283
    10    0.013311   -0.011910   -0.027286
----------------------------------------
   Tot   -0.000000   -0.000000   -0.000000
----------------------------------------
   Max    0.029771
   Res    0.014584    sqrt( Sum f_i^2 / 3N )
----------------------------------------
   Max    0.029771    constrained

Stress-tensor-Voigt (kbar):     -980.57     -992.09     -993.74        6.44        1.88        4.22
(Free)E + p*V (eV/cell)    -2901.3914
Target enthalpy (eV/cell)    -2901.0308

siesta: Stress tensor (static) (eV/Ang**3):
        -0.612015    0.004019    0.002631
         0.004019   -0.619207    0.001176
         0.002631    0.001176   -0.620234

siesta: Pressure (static):        988.79757734  kBar

siesta: Stress tensor (total) (eV/Ang**3):
        -0.612015    0.004019    0.002631
         0.004019   -0.619207    0.001176
         0.002631    0.001176   -0.620234

siesta: Pressure (total):        988.79757734  kBar

outcoor: Relaxed atomic coordinates (fractional):           
   -0.00000000   -0.00000000   -0.00000000   1       1  Mg
    0.50000000    0.50000000    0.50000000   1       2  Mg
    0.24999998    0.25000000    0.25000001   2       3  C
   -0.24999998   -0.25000000   -0.25000001   2       4  C
    0.56746955   -0.06746952    0.25000000   3       5  O
    0.25000000    0.56746950   -0.06746953   3       6  O
   -0.06746954    0.25000000    0.56746955   3       7  O
   -0.56746955    0.06746952   -0.25000000   3       8  O
   -0.25000000   -0.56746950    0.06746953   3       9  O
    0.06746954   -0.25000000   -0.56746955   3      10  O

outcell: Unit cell vectors (Ang):
        4.347687   -0.256143   -0.167675
        2.708176    3.410831   -0.167675
        2.708176    1.210830    3.193082

outcell: Cell vector modules (Ang)   :    4.358452    4.358451    4.358452
outcell: Cell angles (23,13,12) (deg):     54.8783     54.8783     54.8783
outcell: Cell volume (Ang**3)        :     51.5639

siesta: Program's energy decomposition (eV):
siesta: Ebs     =      -812.400251
siesta: Eions   =      5228.674091
siesta: Ena     =      1067.508190
siesta: Ekin    =      2501.968888
siesta: Enl     =      -410.738800
siesta: Eso     =         0.000000
siesta: Eldau   =         0.000000
siesta: DEna    =      -141.582672
siesta: DUscf   =        27.585628
siesta: DUext   =         0.000000
siesta: Exc     =      -749.281304
siesta: eta*DQ  =         0.000000
siesta: Emadel  =         0.000000
siesta: Emeta   =         0.000000
siesta: Emolmec =         0.000000
siesta: Ekinion =         0.000000
siesta: Eharris =     -2955.707032
siesta: Etot    =     -2933.214161
siesta: FreeEng =     -2933.214161

siesta: Final energy (eV):
siesta:  Band Struct. =    -812.400251
siesta:       Kinetic =    2501.968888
siesta:       Hartree =     684.771346
siesta:       Eldau   =       0.000000
siesta:       Eso     =       0.000000
siesta:    Ext. field =       0.000000
siesta:   Exch.-corr. =    -749.281304
siesta:  Ion-electron =   -3545.646826
siesta:       Ion-ion =   -1825.026265
siesta:       Ekinion =       0.000000
siesta:         Total =   -2933.214161
siesta:         Fermi =      -4.703688

siesta: Stress tensor (static) (eV/Ang**3):
siesta:    -0.612015    0.004019    0.002631
siesta:     0.004019   -0.619207    0.001176
siesta:     0.002631    0.001176   -0.620234

siesta: Constrained stress tensor (static) (eV/Ang**3):
siesta:    -0.612015    0.004019    0.002631
siesta:     0.004019   -0.619207    0.001176
siesta:     0.002631    0.001176   -0.620234

siesta: Cell volume =         51.563914 Ang**3

siesta: Pressure (static):
siesta:                Solid            Molecule  Units
siesta:           0.00672158          0.00670401  Ry/Bohr**3
siesta:           0.61715223          0.61553926  eV/Ang**3
siesta:         988.79757734        986.21327318  kBar
(Free)E+ p_basis*V_orbitals  =       -2932.019864
(Free)Eharris+ p_basis*V_orbitals  =       -2954.512735
>> End of run:  18-AUG-2016  10:32:24
