Siesta Version: trunk-507---ts-scf-680
Architecture  : x86_64-linux-gcc
Compiler flags: mpif90 -m64 -fPIC -O3 -ftree-vectorize -fexpensive-optimizations -funroll-loops -fprefetch-loop-arrays -fgraphite -fipa-icf -fipa-pure-const -march=native -fschedule-fusion -fselective-scheduling  -fipa-sra -fipa-cp -Warray-temporaries -fcheck=array-temps -fno-second-underscore -I/opt/zlib/1.2.8/gnu-6.1.0/include -I/opt/hdf5/1.8.16/gnu-6.1.0/include -I/opt/pnetcdf/1.7.0/gnu-6.1.0/include -I/opt/netcdf/4.4.0/gnu-6.1.0/include -I/opt/openmpi/1.10.2/gnu-6.1.0/include -I/opt/mumps/5.0.1/gnu-6.1.0/include
PP flags      : -DSIESTA__FLOOK -DSIESTA__METIS -DMPI -DFC_HAVE_FLUSH -DFC_HAVE_ABORT -DCDF -DGRID_DP -DMPI_TIMING -DTRANSIESTA_TIMING -DTBTRANS_TIMING -DSIESTA__MUMPS -DNCDF_PARALLEL -DNCDF -DNCDF_4 -DSCALAPACK_DEBUG -DTRANSIESTA
Libraries     : -lzmumps -lmumps_common -lpord -lparmetis -lmetis -L/opt/scalapack/204/gnu-6.1.0/lib -Wl,-rpath=/opt/scalapack/204/gnu-6.1.0/lib -lscalapack  -L/opt/openblas/0.2.17/gnu-6.1.0/lib -Wl,-rpath=/opt/openblas/0.2.17/gnu-6.1.0/lib -lopenblas -L/home/nicpa/phd/esl/flook -lflookall -ldl -lnetcdff -lnetcdf -lpnetcdf -lhdf5_hl -lhdf5 -lz
PARALLEL version
TRANSIESTA support
NetCDF support
NetCDF-4 support
NetCDF-4 MPI-IO support
METIS ordering support

* Running on 2 nodes in parallel
>> Start of run:   1-JUN-2016  23:43:41

                           ***********************       
                           *  WELCOME TO SIESTA  *       
                           ***********************       

reinit: Reading from standard input
************************** Dump of input data file ****************************
SolutionMethod        Transiesta
SystemName  Au 100 with gold chain
SystemLabel au_100
==================================================
==================================================
# SPECIES AND BASIS
# Number of species
NumberOfSpecies 1
%block ChemicalSpeciesLabel
  1  79 Au
%endblock ChemicalSpeciesLabel
PAO.BasisSize    SZP
PAO.EnergyShift  0.005 Ry
XC.functional   GGA
XC.authors      PBE
==================================================
==================================================
# K-points
%block kgrid_Monkhorst_Pack
 2    0    0    0.0
 0    2    0    0.0
 0    0    2    0.0
%endblock kgrid_Monkhorst_Pack
==================================================
==================================================
# Structure
NumberOfAtoms 112
LatticeConstant 1.0 Ang
%block LatticeVectors
     8.651160000      0.000000000      0.000000000
     0.000000000      8.651160000      0.000000000
     0.000000000      0.000000000     32.625600000
%endblock LatticeVectors
AtomicCoordinatesFormat  Ang
%block AtomicCoordinatesAndAtomicSpecies
     0.000000000      0.000000000      0.000000000 1 # 1. layer
     2.883720000      0.000000000      0.000000000 1
     5.767440000      0.000000000      0.000000000 1
     0.000000000      2.883720000      0.000000000 1
     2.883720000      2.883720000      0.000000000 1
     5.767440000      2.883720000      0.000000000 1
     0.000000000      5.767440000      0.000000000 1
     2.883720000      5.767440000      0.000000000 1
     5.767440000      5.767440000      0.000000000 1
     1.441860000      1.441860000      2.039100000 1 # 2. layer
     4.325580000      1.441860000      2.039100000 1
     7.209300000      1.441860000      2.039100000 1
     1.441860000      4.325580000      2.039100000 1
     4.325580000      4.325580000      2.039100000 1
     7.209300000      4.325580000      2.039100000 1
     1.441860000      7.209300000      2.039100000 1
     4.325580000      7.209300000      2.039100000 1
     7.209300000      7.209300000      2.039100000 1
     0.000000000      0.000000000      4.078200000 1 # 3. layer
     2.883720000      0.000000000      4.078200000 1
     5.767440000      0.000000000      4.078200000 1
     0.000000000      2.883720000      4.078200000 1
     2.883720000      2.883720000      4.078200000 1
     5.767440000      2.883720000      4.078200000 1
     0.000000000      5.767440000      4.078200000 1
     2.883720000      5.767440000      4.078200000 1
     5.767440000      5.767440000      4.078200000 1
     1.441860000      1.441860000      6.117300000 1 # 4. layer
     4.325580000      1.441860000      6.117300000 1
     7.209300000      1.441860000      6.117300000 1
     1.441860000      4.325580000      6.117300000 1
     4.325580000      4.325580000      6.117300000 1
     7.209300000      4.325580000      6.117300000 1
     1.441860000      7.209300000      6.117300000 1
     4.325580000      7.209300000      6.117300000 1
     7.209300000      7.209300000      6.117300000 1
     0.000000000      0.000000000      8.156400000 1 # 5. layer
     2.883720000      0.000000000      8.156400000 1
     5.767440000      0.000000000      8.156400000 1
     0.000000000      2.883720000      8.156400000 1
     2.883720000      2.883720000      8.156400000 1
     5.767440000      2.883720000      8.156400000 1
     0.000000000      5.767440000      8.156400000 1
     2.883720000      5.767440000      8.156400000 1
     5.767440000      5.767440000      8.156400000 1
     1.441860000      1.441860000     10.195500000 1 # 6. layer
     4.325580000      1.441860000     10.195500000 1
     7.209300000      1.441860000     10.195500000 1
     1.441860000      4.325580000     10.195500000 1
     4.325580000      4.325580000     10.195500000 1
     7.209300000      4.325580000     10.195500000 1
     1.441860000      7.209300000     10.195500000 1
     4.325580000      7.209300000     10.195500000 1
     7.209300000      7.209300000     10.195500000 1
     0.000000000      0.000000000     12.234600000 1 # 7. layer
     1.441860000      1.441860000     14.273700000 1 # 8. layer
     0.000000000      0.000000000     16.312800000 1 # 9. layer
     1.441860000      1.441860000     18.351900000 1 # 10. layer
     0.000000000      0.000000000     20.391000000 1 # 11. layer
     2.883720000      0.000000000     20.391000000 1
     5.767440000      0.000000000     20.391000000 1
     0.000000000      2.883720000     20.391000000 1
     2.883720000      2.883720000     20.391000000 1
     5.767440000      2.883720000     20.391000000 1
     0.000000000      5.767440000     20.391000000 1
     2.883720000      5.767440000     20.391000000 1
     5.767440000      5.767440000     20.391000000 1
     1.441860000      1.441860000     22.430100000 1 # 12. layer
     4.325580000      1.441860000     22.430100000 1
     7.209300000      1.441860000     22.430100000 1
     1.441860000      4.325580000     22.430100000 1
     4.325580000      4.325580000     22.430100000 1
     7.209300000      4.325580000     22.430100000 1
     1.441860000      7.209300000     22.430100000 1
     4.325580000      7.209300000     22.430100000 1
     7.209300000      7.209300000     22.430100000 1
     0.000000000      0.000000000     24.469200000 1 # 13. layer
     2.883720000      0.000000000     24.469200000 1
     5.767440000      0.000000000     24.469200000 1
     0.000000000      2.883720000     24.469200000 1
     2.883720000      2.883720000     24.469200000 1
     5.767440000      2.883720000     24.469200000 1
     0.000000000      5.767440000     24.469200000 1
     2.883720000      5.767440000     24.469200000 1
     5.767440000      5.767440000     24.469200000 1
     1.441860000      1.441860000     26.508300000 1 # 14. layer
     4.325580000      1.441860000     26.508300000 1
     7.209300000      1.441860000     26.508300000 1
     1.441860000      4.325580000     26.508300000 1
     4.325580000      4.325580000     26.508300000 1
     7.209300000      4.325580000     26.508300000 1
     1.441860000      7.209300000     26.508300000 1
     4.325580000      7.209300000     26.508300000 1
     7.209300000      7.209300000     26.508300000 1
     0.000000000      0.000000000     28.547400000 1 # 15. layer
     2.883720000      0.000000000     28.547400000 1
     5.767440000      0.000000000     28.547400000 1
     0.000000000      2.883720000     28.547400000 1
     2.883720000      2.883720000     28.547400000 1
     5.767440000      2.883720000     28.547400000 1
     0.000000000      5.767440000     28.547400000 1
     2.883720000      5.767440000     28.547400000 1
     5.767440000      5.767440000     28.547400000 1
     1.441860000      1.441860000     30.586500000 1 # 16. layer
     4.325580000      1.441860000     30.586500000 1
     7.209300000      1.441860000     30.586500000 1
     1.441860000      4.325580000     30.586500000 1
     4.325580000      4.325580000     30.586500000 1
     7.209300000      4.325580000     30.586500000 1
     1.441860000      7.209300000     30.586500000 1
     4.325580000      7.209300000     30.586500000 1
     7.209300000      7.209300000     30.586500000 1
%endblock AtomicCoordinatesAndAtomicSpecies
==================================================
==================================================
# SCF variables
DM.MixSCF1   T
MaxSCFIterations      300           # Maximum number of SCF iter
DM.MixingWeight       0.05          # New DM amount for next SCF cycle
DM.Tolerance          1.d-4         # Tolerance in maximum difference
DM.UseSaveDM          true          # to use continuation files
DM.NumberPulay        5
TS.MixH               yes
==================================================
==================================================
# MD variables
MD.FinalTimeStep 1
MD.TypeOfRun CG
MD.NumCGsteps     000
MD.UseSaveXV      .true.
==================================================
==================================================
# Output variables
WriteMullikenPop                1
WriteBands                      .false.
SaveRho                         .false.
SaveDeltaRho                    .false.
SaveHS                          .false.
SaveElectrostaticPotential      True
SaveTotalPotential              no
WriteCoorXmol                   .true.
WriteMDXmol                     .true.
WriteMDhistory                  .false.
WriteEigenvalues                yes
==================================================
==================================================
# Transmission
TS.TBT.NPoints      101
TS.TBT.Emin        -0.5 eV
TS.TBT.Emax         0.5 eV
TS.TBT.NEigen              9
# Bias voltage
TS.Voltage 0.0 eV
# Transiesta: electrode definition:
# LEFT ELECTRODE
TS.HSFileLeft ./elec_au_100.TSHS
TS.ReplicateA1Left    3
TS.ReplicateA2Left    3
TS.NumUsedAtomsLeft   4
TS.BufferAtomsLeft    0
# RIGHT ELECTRODE
TS.HSFileRight ./elec_au_100.TSHS
TS.ReplicateA1Right   3
TS.ReplicateA2Right   3
TS.NumUsedAtomsRight  4
TS.BufferAtomsRight   0
# SPECIES AND ATOMS
# DYNAMICS
TS.UseBulkInElectrodes  T
TS.Voltage      0.000000000     Ry
%block TS.ChemPots
  Left
  Right
%endblock TS.ChemPots
%block TS.ChemPot.Left
  mu V/2
  contour.eq
    begin
      c-Left
      t-Left
    end
%endblock TS.ChemPot.Left
%block TS.ChemPot.Right
  mu -V/2
  contour.eq
    begin
      c-Right
      t-Right
    end
%endblock TS.ChemPot.Right
TS.Elecs.Bulk true
TS.Elecs.DM.Update none
TS.Elecs.GF.ReUse false
%block TS.Elecs
  Left
  Right
%endblock TS.Elecs
%block TS.Elec.Left
  TSHS ./elec_au_100.TSHS
  chem-pot Left
  semi-inf-dir -a3
  elec-pos begin 1
  used-atoms 4
  rep-a1 3
  rep-a2 3
%endblock TS.Elec.Left
%block TS.Elec.Right
  TSHS ./elec_au_100.TSHS
  chem-pot Right
  semi-inf-dir +a3
  elec-pos end -1
  used-atoms 4
  rep-a1 3
  rep-a2 3
%endblock TS.Elec.Right
TS.Contours.Eq.Pole.N 6
%block TS.Contour.c-Left
  part circle
   from   -3.00000 Ry + V/2 to -10. kT + V/2
    points 30
     method g-legendre
%endblock TS.Contour.c-Left
%block TS.Contour.t-Left
  part tail
   from prev to inf
    points 10
     method g-fermi
%endblock TS.Contour.t-Left
%block TS.Contour.c-Right
  part circle
   from   -3.00000 Ry - V/2 to -10. kT - V/2
    points 30
     method g-legendre
%endblock TS.Contour.c-Right
%block TS.Contour.t-Right
  part tail
   from prev to inf
    points 10
     method g-fermi
%endblock TS.Contour.t-Right
TS.Contours.nEq.Eta    0.0000010000 Ry
%block TS.Contours.Bias.Window
  neq
%endblock TS.Contours.Bias.Window
%block TS.Contour.Bias.Window.neq
  part line
   from -|V|/2 to |V|/2
    delta 0.01 eV
     method simpson-mix
%endblock TS.Contour.Bias.Window.neq
%block TS.Contours.Bias.Tail
  neq-tail
%endblock TS.Contours.Bias.tail
%block TS.Contour.Bias.Tail.neq-tail
  part tail
   from 0. kT to 12. kT
    delta 0.01 eV
     method simpson-mix
%endblock TS.Contour.Bias.Tail.neq-tail
************************** End of input data file *****************************

reinit: -----------------------------------------------------------------------
reinit: System Name: Au 100 with gold chain
reinit: -----------------------------------------------------------------------
reinit: System Label: au_100                                                      
reinit: -----------------------------------------------------------------------

initatom: Reading input for the pseudopotentials and atomic orbitals ----------
Species number:   1 Atomic number:   79 Label: Au

Ground state valence configuration:   6s01  5d10
Reading pseudopotential information in formatted form from Au.psf

Pseudopotential generated from a relativistic atomic calculation
There are spin-orbit pseudopotentials available
Spin-orbit interaction is not included in this calculation

Valence configuration for pseudopotential generation:
6s( 1.00) rc: 2.29
6p( 0.00) rc: 3.14
5d(10.00) rc: 1.20
5f( 0.00) rc: 3.14
For Au, standard SIESTA heuristics set lmxkb to 3
 (one more than the basis l, including polarization orbitals).
Use PS.lmax or PS.KBprojectors blocks to override.

<basis_specs>
===============================================================================
Au                   Z=  79    Mass=  196.97        Charge= 0.17977+309
Lmxo=2 Lmxkb= 3    BasisType=split      Semic=F
L=0  Nsemic=0  Cnfigmx=6
          n=1  nzeta=1  polorb=1
            splnorm:   0.15000    
               vcte:    0.0000    
               rinn:    0.0000    
               qcoe:    0.0000    
               qyuk:    0.0000    
               qwid:   0.10000E-01
                rcs:    0.0000    
            lambdas:    1.0000    
L=1  Nsemic=0  Cnfigmx=6
L=2  Nsemic=0  Cnfigmx=5
          n=1  nzeta=1  polorb=0
            splnorm:   0.15000    
               vcte:    0.0000    
               rinn:    0.0000    
               qcoe:    0.0000    
               qyuk:    0.0000    
               qwid:   0.10000E-01
                rcs:    0.0000    
            lambdas:    1.0000    
-------------------------------------------------------------------------------
L=0  Nkbl=1  erefs: 0.17977+309
L=1  Nkbl=1  erefs: 0.17977+309
L=2  Nkbl=1  erefs: 0.17977+309
L=3  Nkbl=1  erefs: 0.17977+309
===============================================================================
</basis_specs>

atom: Called for Au                    (Z =  79)

read_vps: Pseudopotential generation method:
read_vps: ATM3      Troullier-Martins                       
Total valence charge:   11.00000

read_vps: Pseudopotential includes a core correction:
read_vps: Pseudo-core for xc-correction

xc_check: Exchange-correlation functional:
xc_check: GGA Perdew, Burke & Ernzerhof 1996
V l=0 = -2*Zval/r beyond r=  2.9833
V l=1 = -2*Zval/r beyond r=  3.1363
V l=2 = -2*Zval/r beyond r=  2.9833
V l=3 = -2*Zval/r beyond r=  3.1363
All V_l potentials equal beyond r=  3.0973
This should be close to max(r_c) in ps generation
All pots = -2*Zval/r beyond r=  3.1363

VLOCAL1: 99.0% of the norm of Vloc inside      4.525 Ry
VLOCAL1: 99.9% of the norm of Vloc inside     10.312 Ry
atom: Maximum radius for 4*pi*r*r*local-pseudopot. charge    3.73611
atom: Maximum radius for r*vlocal+2*Zval:    3.29710
GHOST: No ghost state for L =  0
GHOST: No ghost state for L =  1
GHOST: No ghost state for L =  2
GHOST: No ghost state for L =  3

KBgen: Kleinman-Bylander projectors: 
   l= 0   rc=  3.423088   el= -0.421435   Ekb=  5.114239   kbcos=  0.182513
   l= 1   rc=  3.553892   el= -0.058080   Ekb=  1.612319   kbcos=  0.221966
   l= 2   rc=  3.256140   el= -0.508574   Ekb= -6.472599   kbcos= -0.707183
   l= 3   rc=  3.643860   el=  0.003083   Ekb= -1.026026   kbcos= -0.026089

KBgen: Total number of  Kleinman-Bylander projectors:   16
atom: -------------------------------------------------------------------------

atom: SANKEY-TYPE ORBITALS:

SPLIT: Orbitals with angular momentum L= 0

SPLIT: Basis orbitals for state 6s

SPLIT: PAO cut-off radius determined from an
SPLIT: energy shift=  0.005000 Ry

   izeta = 1
                 lambda =    1.000000
                     rc =    7.246712
                 energy =   -0.416422
                kinetic =    0.363232
    potential(screened) =   -0.779654
       potential(ionic) =   -8.332754

SPLIT: Orbitals with angular momentum L= 2

SPLIT: Basis orbitals for state 5d

SPLIT: PAO cut-off radius determined from an
SPLIT: energy shift=  0.005000 Ry

   izeta = 1
                 lambda =    1.000000
                     rc =    5.106662
                 energy =   -0.503595
                kinetic =    4.974612
    potential(screened) =   -5.478207
       potential(ionic) =  -15.919605

POLgen: Perturbative polarization orbital with L=  1

POLgen: Polarization orbital for state 6s

   izeta = 1
                     rc =    7.246712
                 energy =   -0.086468
                kinetic =    0.638528
    potential(screened) =   -0.724996
       potential(ionic) =   -7.799440
atom: Total number of Sankey-type orbitals:  9

atm_pop: Valence configuration (for local Pseudopot. screening):
 6s( 1.00)                                                            
 6p( 0.00)                                                            
 5d(10.00)                                                            
Vna: chval, zval:   11.00000  11.00000

Vna:  Cut-off radius for the neutral-atom potential:   7.246712
comcore: Pseudo-core radius Rcore=  4.027091

atom: _________________________________________________________________________

prinput: Basis input ----------------------------------------------------------

PAO.BasisType split     

%block ChemicalSpeciesLabel
    1   79 Au                      # Species index, atomic number, species label
%endblock ChemicalSpeciesLabel

%block PAO.Basis                 # Define Basis set
Au                    2                    # Species label, number of l-shells
 n=6   0   1 P   1                   # n, l, Nzeta, Polarization, NzetaPol
   7.247   
   1.000   
 n=5   2   1                         # n, l, Nzeta 
   5.107   
   1.000   
%endblock PAO.Basis

prinput: ----------------------------------------------------------------------

Dumping basis to NetCDF file Au.ion.nc
coor:   Atomic-coordinates input format  =     Cartesian coordinates
coor:                                          (in Angstroms)

siesta: WARNING: XV file not found

siesta: Atomic coordinates (Bohr) and species
siesta:      0.00000   0.00000   0.00000  1        1
siesta:      5.44944   0.00000   0.00000  1        2
siesta:     10.89889   0.00000   0.00000  1        3
siesta:      0.00000   5.44944   0.00000  1        4
siesta:      5.44944   5.44944   0.00000  1        5
siesta:     10.89889   5.44944   0.00000  1        6
siesta:      0.00000  10.89889   0.00000  1        7
siesta:      5.44944  10.89889   0.00000  1        8
siesta:     10.89889  10.89889   0.00000  1        9
siesta:      2.72472   2.72472   3.85334  1       10
siesta:      8.17416   2.72472   3.85334  1       11
siesta:     13.62361   2.72472   3.85334  1       12
siesta:      2.72472   8.17416   3.85334  1       13
siesta:      8.17416   8.17416   3.85334  1       14
siesta:     13.62361   8.17416   3.85334  1       15
siesta:      2.72472  13.62361   3.85334  1       16
siesta:      8.17416  13.62361   3.85334  1       17
siesta:     13.62361  13.62361   3.85334  1       18
siesta:      0.00000   0.00000   7.70668  1       19
siesta:      5.44944   0.00000   7.70668  1       20
siesta:     10.89889   0.00000   7.70668  1       21
siesta:      0.00000   5.44944   7.70668  1       22
siesta:      5.44944   5.44944   7.70668  1       23
siesta:     10.89889   5.44944   7.70668  1       24
siesta:      0.00000  10.89889   7.70668  1       25
siesta:      5.44944  10.89889   7.70668  1       26
siesta:     10.89889  10.89889   7.70668  1       27
siesta:      2.72472   2.72472  11.56003  1       28
siesta:      8.17416   2.72472  11.56003  1       29
siesta:     13.62361   2.72472  11.56003  1       30
siesta:      2.72472   8.17416  11.56003  1       31
siesta:      8.17416   8.17416  11.56003  1       32
siesta:     13.62361   8.17416  11.56003  1       33
siesta:      2.72472  13.62361  11.56003  1       34
siesta:      8.17416  13.62361  11.56003  1       35
siesta:     13.62361  13.62361  11.56003  1       36
siesta:      0.00000   0.00000  15.41337  1       37
siesta:      5.44944   0.00000  15.41337  1       38
siesta:     10.89889   0.00000  15.41337  1       39
siesta:      0.00000   5.44944  15.41337  1       40
siesta:      5.44944   5.44944  15.41337  1       41
siesta:     10.89889   5.44944  15.41337  1       42
siesta:      0.00000  10.89889  15.41337  1       43
siesta:      5.44944  10.89889  15.41337  1       44
siesta:     10.89889  10.89889  15.41337  1       45
siesta:      2.72472   2.72472  19.26671  1       46
siesta:      8.17416   2.72472  19.26671  1       47
siesta:     13.62361   2.72472  19.26671  1       48
siesta:      2.72472   8.17416  19.26671  1       49
siesta:      8.17416   8.17416  19.26671  1       50
siesta:     13.62361   8.17416  19.26671  1       51
siesta:      2.72472  13.62361  19.26671  1       52
siesta:      8.17416  13.62361  19.26671  1       53
siesta:     13.62361  13.62361  19.26671  1       54
siesta:      0.00000   0.00000  23.12005  1       55
siesta:      2.72472   2.72472  26.97339  1       56
siesta:      0.00000   0.00000  30.82674  1       57
siesta:      2.72472   2.72472  34.68008  1       58
siesta:      0.00000   0.00000  38.53342  1       59
siesta:      5.44944   0.00000  38.53342  1       60
siesta:     10.89889   0.00000  38.53342  1       61
siesta:      0.00000   5.44944  38.53342  1       62
siesta:      5.44944   5.44944  38.53342  1       63
siesta:     10.89889   5.44944  38.53342  1       64
siesta:      0.00000  10.89889  38.53342  1       65
siesta:      5.44944  10.89889  38.53342  1       66
siesta:     10.89889  10.89889  38.53342  1       67
siesta:      2.72472   2.72472  42.38676  1       68
siesta:      8.17416   2.72472  42.38676  1       69
siesta:     13.62361   2.72472  42.38676  1       70
siesta:      2.72472   8.17416  42.38676  1       71
siesta:      8.17416   8.17416  42.38676  1       72
siesta:     13.62361   8.17416  42.38676  1       73
siesta:      2.72472  13.62361  42.38676  1       74
siesta:      8.17416  13.62361  42.38676  1       75
siesta:     13.62361  13.62361  42.38676  1       76
siesta:      0.00000   0.00000  46.24010  1       77
siesta:      5.44944   0.00000  46.24010  1       78
siesta:     10.89889   0.00000  46.24010  1       79
siesta:      0.00000   5.44944  46.24010  1       80
siesta:      5.44944   5.44944  46.24010  1       81
siesta:     10.89889   5.44944  46.24010  1       82
siesta:      0.00000  10.89889  46.24010  1       83
siesta:      5.44944  10.89889  46.24010  1       84
siesta:     10.89889  10.89889  46.24010  1       85
siesta:      2.72472   2.72472  50.09345  1       86
siesta:      8.17416   2.72472  50.09345  1       87
siesta:     13.62361   2.72472  50.09345  1       88
siesta:      2.72472   8.17416  50.09345  1       89
siesta:      8.17416   8.17416  50.09345  1       90
siesta:     13.62361   8.17416  50.09345  1       91
siesta:      2.72472  13.62361  50.09345  1       92
siesta:      8.17416  13.62361  50.09345  1       93
siesta:     13.62361  13.62361  50.09345  1       94
siesta:      0.00000   0.00000  53.94679  1       95
siesta:      5.44944   0.00000  53.94679  1       96
siesta:     10.89889   0.00000  53.94679  1       97
siesta:      0.00000   5.44944  53.94679  1       98
siesta:      5.44944   5.44944  53.94679  1       99
siesta:     10.89889   5.44944  53.94679  1      100
siesta:      0.00000  10.89889  53.94679  1      101
siesta:      5.44944  10.89889  53.94679  1      102
siesta:     10.89889  10.89889  53.94679  1      103
siesta:      2.72472   2.72472  57.80013  1      104
siesta:      8.17416   2.72472  57.80013  1      105
siesta:     13.62361   2.72472  57.80013  1      106
siesta:      2.72472   8.17416  57.80013  1      107
siesta:      8.17416   8.17416  57.80013  1      108
siesta:     13.62361   8.17416  57.80013  1      109
siesta:      2.72472  13.62361  57.80013  1      110
siesta:      8.17416  13.62361  57.80013  1      111
siesta:     13.62361  13.62361  57.80013  1      112

siesta: System type = bulk      

initatomlists: Number of atoms, orbitals, and projectors:    112  1008  1792

coxmol: Writing XMOL coordinates into file au_100.xyz                                                      

siesta: ******************** Simulation parameters ****************************
siesta:
siesta: The following are some of the parameters of the simulation.
siesta: A complete list of the parameters used, including default values,
siesta: can be found in file out.fdf
siesta:
redata: Non-Collinear-spin run                   =   F
redata: SpinPolarized (Up/Down) run              =   F
redata: Number of spin components                =   1
redata: Long output                                 =   F
redata: Number of Atomic Species                    =        1
redata: Charge density info will appear in .RHO file
redata: Write Mulliken Pop.                         = Atomic and Orbital charges
redata: Mesh Cutoff                                 =   100.0000 Ry
redata: Net charge of the system                    =     0.0000 |e|
redata: Min. number of SCF Iter                     =        0
redata: Max. number of SCF Iter                     =      300
redata: Mix Hamiltonian instead of DM               =   T
redata: Mix DM or H after convergence               =   F
redata: Recompute H after scf cycle                 =   F
redata: Mix DM in first SCF step                    =   T
redata: Write Pulay info on disk                    =   F
redata: Discard 1st Pulay DM after kick             =   F
redata: New DM Mixing Weight                        =     0.0500
redata: New DM Occupancy tolerance                  = 0.000000000001
redata: No kicks to SCF
redata: DM Mixing Weight for Kicks                  =     0.5000
redata: DM Tolerance for SCF                        =     0.000100
redata: Require H convergence for SCF               =   F
redata: Hamiltonian Tolerance in SCF                =     0.000100 Ry
redata: Require (free) Energy convergence in SCF    =   F
redata: DM (free)Energy tolerance for SCF           =     0.000010 eV
redata: Require Harris convergence for SCF          =   F
redata: DM Harris energy tolerance for SCF          =     0.000010 eV
redata: Using Saved Data (generic)                  =   F
redata: Use continuation files for DM               =   T
redata: Neglect nonoverlap interactions             =   F
redata: Method of Calculation                       = Transiesta
redata: Fix the spin of the system                  =   F
redata: Dynamics option                             = Single-point calculation
mix.SCF: Pulay mixing                            = Pulay
mix.SCF:    Variant                              = stable
mix.SCF:    History steps                        = 5
mix.SCF:    Linear mixing weight                 =     0.050000
mix.SCF:    Damping                              =     0.050000
mix.SCF:    SVD condition                        = 0.1000E-07
redata: Save data in SIESTA.nc                      =   F
redata: ***********************************************************************
DM_history_depth set to one: no extrapolation allowed by default for geometry relaxation
Size of DM history Fstack: 1
Total number of electrons:  1232.000000
Total ionic charge:  1232.000000

* ProcessorY, Blocksize:    1  24


* Orbital distribution balance (max,min):   504   504

k-point displ. along   1 input, could be:     0.00    0.50
k-point displ. along   2 input, could be:     0.00    0.50
k-point displ. along   3 input, could be:     0.00    0.50
 Kpoints in:            8 . Kpoints trimmed:            8

siesta: k-grid: Number of k-points =     8
siesta: k-grid: Cutoff (effective) =     8.651 Ang
siesta: k-grid: Supercell and displacements
siesta: k-grid:    2   0   0      0.000
siesta: k-grid:    0   2   0      0.000
siesta: k-grid:    0   0   2      0.000

superc: Internal auxiliary supercell:     3 x     3 x     3  =      27
superc: Number of atoms, orbitals, and projectors:   3024  27216  48384


DEPRECATION WARNING:
Electrode Bloch expansion keyword in electrode Left:
  replicate
has been superseeded by:
  bloch
The replicate keyword may be ignored in future versions.


DEPRECATION WARNING:
Electrode Bloch expansion keyword in electrode Right:
  replicate
has been superseeded by:
  bloch
The replicate keyword may be ignored in future versions.

k-point displ. along   1 input, could be:     0.00    0.50
k-point displ. along   2 input, could be:     0.00    0.50
 Kpoints in:            4 . Kpoints trimmed:            4

transiesta: k-grid: Number of Green function k-points =     4
transiesta: k-grid: Supercell and displacements
transiesta: k-grid:    2   0   0      0.000
transiesta: k-grid:    0   2   0      0.000
transiesta: k-grid:    0   0   1      0.000
Electrode: Left has very few k-points in the semi-infinite direction, at least 20 is recommended.
Electrode: Right has very few k-points in the semi-infinite direction, at least 20 is recommended.

ts: **************************************************************
ts: Save H and S matrices                           =    T
ts: Electronic temperature                          =  299.986869 K
ts: Transport along unit-cell vector                =    A3
ts: Transport along Cartesian vector                =    Z
ts: Fixing Hartree potential at electrode-plane     =    Right
ts: Fix Hartree potential fraction                  =    1.0000
ts: Solution method                                 =    BTD
ts: BTD pivoting method method                      =    atom+Left
ts: BTD creation algorithm                          =    speed
ts: SCF.TS DM tolerance                             = 0.100E-03
ts: SCF.TS Hamiltonian tolerance                    = 0.100E-03
ts: Initialize DM by                                =    diagon
ts: Initial DM for electrodes                       =    this
ts: Voltage                                         =    0.0000 Volts
ts: Will not correct charge fluctuations
ts: TS.SCF mixing options same as SCF
ts:           >> Electrodes << 
ts: >> Left
ts:   Electrode cell pivoting: E1, E2, E3           = A1, A2, A3
ts:   GF file                                       = au_100.TSGFLeft
ts:   Reuse existing GF-file                        =    F
ts:   Electrode TSHS file                           = ./elec_au_100.TSHS
ts:   # atoms used in electrode                     =    4
ts:   Electrode Bloch expansion [E1 x E2 x E3]      = 3 x 3 x 1
ts:   Position in geometry                          = 1 -- 36
ts:   Semi-infinite direction for electrode         = negative wrt. E3
ts:   Chemical shift                                =    0.000000 eV
ts:   Electronic temperature                        =  299.986869 K
ts:   Bulk values in electrode                      =    T
ts:   Pre-expansion to reduce computation           = H, S, GS
ts:   Cross-terms are not updated
ts:   Electrode self-energy imaginary Eta           =  0.1361E-04  eV
ts:   Electrode inter-layer distance (semi-inf)     =    2.0391  Ang
ts: >> Right
ts:   Electrode cell pivoting: E1, E2, E3           = A1, A2, A3
ts:   GF file                                       = au_100.TSGFRight
ts:   Reuse existing GF-file                        =    F
ts:   Electrode TSHS file                           = ./elec_au_100.TSHS
ts:   # atoms used in electrode                     =    4
ts:   Electrode Bloch expansion [E1 x E2 x E3]      = 3 x 3 x 1
ts:   Position in geometry                          = 77 -- 112
ts:   Semi-infinite direction for electrode         = positive wrt. E3
ts:   Chemical shift                                =    0.000000 eV
ts:   Electronic temperature                        =  299.986869 K
ts:   Bulk values in electrode                      =    T
ts:   Pre-expansion to reduce computation           = H, S, GS
ts:   Cross-terms are not updated
ts:   Electrode self-energy imaginary Eta           =  0.1361E-04  eV
ts:   Electrode inter-layer distance (semi-inf)     =    2.0391  Ang
ts:  ----------------- Contour ----------------- 
ts:            >> Residual contour << 
ts: Pole chemical potential                         =    0.0000 eV
ts:    Chemical potential temperature               =  299.9869 K
ts:    Number of poles                              =   16
ts:    Top energy point                             =    2.5988 eV
ts:          >> Equilibrium contour << 
ts: Contour name                                    =    TS.Contour.c-Left
ts:   circle contour E_min                          =  -40.8174 eV
ts:   circle contour E_max                          =   -0.2585 eV
ts:   circle contour points                         =   30
ts:   circle contour method                         =    Gauss-Legendre
ts: Contour name                                    =    TS.Contour.t-Left
ts:   tail contour E_min                            =   -0.2585 eV
ts:   tail contour E_max                            =     Infinity
ts:   tail contour points                           =   10
ts:   tail contour method                           =    Gauss-Fermi (0kT)
ts: **************************************************************

************************ Begin: TS CHECKS AND WARNINGS ************************
Electrode Left will not update cross-terms or local region.
Electrode Right will not update cross-terms or local region.
************************ End: TS CHECKS AND WARNINGS **************************

                  ****************************************
                   TRANSIESTA REPORTED IMPORTANT WARNINGS
                  ****************************************

>>> Transiesta block information for FDF-file START <<<

%block TS.ChemPots
  Left
%endblock TS.ChemPots

%block TS.ChemPot.Left
  mu  V/2
  contour.eq
   begin
    c-Left
    t-Left
   end
%endblock TS.ChemPot.Left
%block TS.Contour.c-Left
  part circle
     from -3.00000 Ry + V/2 to -10. kT + V/2
      points 30
        method g-legendre
%endblock TS.Contour.c-Left
%block TS.Contour.t-Left
  part tail
     from prev to + inf
      points 10
        method g-fermi
%endblock TS.Contour.t-Left

>>> Transiesta block information for FDF-file END <<<


transiesta: Regions of atoms:
   ## (36): Elec.Left
     [ 1 -- 36 ]
   ## (36): Elec.Right
     [ 77 -- 112 ]
   -- (40): Device
     [ 37 -- 76 ]

  <sparsity:./elec_au_100.TSHS
    nrows_g=36 nrows=36 sparsity=39.2253 nnzs=50836, refcount: 3>
 Left principal cell is perfect!
  <sparsity:(TM [--,--, 0] of: ./elec_au_100.TSHS)
    nrows_g=36 nrows=36 sparsity=23.5926 nnzs=30576, refcount: 3>
  <sparsity:(TM [--,--,-1] of: ./elec_au_100.TSHS)
    nrows_g=36 nrows=36 sparsity=7.8164 nnzs=10130, refcount: 3>

Calculating all surface Green functions for: Left
 Fermi level shift in electrode (chemical potential) :        0.00000  eV
 Atoms available    / used atoms   :      4 /      4
 Orbitals available / used orbitals:     36 /     36
 Total self-energy calculations: 2016
 Bloch expansion k-points in A_1 direction [b_1] (w=1/9):
     0/3, 1/3, 2/3
 Bloch expansion k-points in A_2 direction [b_2] (w=1/9):
     0/3, 1/3, 2/3
 Saving surface Green functions in: au_100.TSGFLeft
 Estimated file size:    371.619 MB
 Lopez Sancho, Lopez Sancho & Rubio recursive surface self-energy calculation...
 Lopez Sancho, Lopez Sancho & Rubio: Mean/std iterations:     4.0437 /     1.1198
 Lopez Sancho, Lopez Sancho & Rubio: Min/Max iterations :          3 /          9
Done creating 'au_100.TSGFLeft'.

  <sparsity:./elec_au_100.TSHS
    nrows_g=36 nrows=36 sparsity=39.2253 nnzs=50836, refcount: 3>
 Right principal cell is perfect!
  <sparsity:(TM [--,--, 0] of: ./elec_au_100.TSHS)
    nrows_g=36 nrows=36 sparsity=23.5926 nnzs=30576, refcount: 3>
  <sparsity:(TM [--,--, 1] of: ./elec_au_100.TSHS)
    nrows_g=36 nrows=36 sparsity=7.8164 nnzs=10130, refcount: 3>

Calculating all surface Green functions for: Right
 Fermi level shift in electrode (chemical potential) :        0.00000  eV
 Atoms available    / used atoms   :      4 /      4
 Orbitals available / used orbitals:     36 /     36
 Total self-energy calculations: 2016
 Bloch expansion k-points in A_1 direction [b_1] (w=1/9):
     0/3, 1/3, 2/3
 Bloch expansion k-points in A_2 direction [b_2] (w=1/9):
     0/3, 1/3, 2/3
 Saving surface Green functions in: au_100.TSGFRight
 Estimated file size:    371.619 MB
 Lopez Sancho, Lopez Sancho & Rubio recursive surface self-energy calculation...
 Lopez Sancho, Lopez Sancho & Rubio: Mean/std iterations:     4.0437 /     1.1198
 Lopez Sancho, Lopez Sancho & Rubio: Min/Max iterations :          3 /          9
Done creating 'au_100.TSGFRight'.


                     ====================================
                        Single-point calculation
                     ====================================

superc: Internal auxiliary supercell:     3 x     3 x     3  =      27
superc: Number of atoms, orbitals, and projectors:   3024  27216  48384

outcell: Unit cell vectors (Ang):
        8.651160    0.000000    0.000000
        0.000000    8.651160    0.000000
        0.000000    0.000000   32.625600

outcell: Cell vector modules (Ang)   :    8.651160    8.651160   32.625600
outcell: Cell angles (23,13,12) (deg):     90.0000     90.0000     90.0000
outcell: Cell volume (Ang**3)        :   2441.7837
<dSpData1D:S at geom step 0
  <sparsity:sparsity for geom step 0
    nrows_g=1008 nrows=504 sparsity=.6037 nnzs=613414, refcount: 7>
  <dData1D:(new from dSpData1D) n=613414, refcount: 1>
refcount: 1>
New_DM. Step:     1
Initializing Density Matrix...
Attempting to read DM, EDM from TSDE file... Failed...
Attempting to read DM from file... Failed...
DM after filling with atomic data:
<dSpData2D:(DM initialized from atoms)
  <sparsity:sparsity for geom step 0
    nrows_g=1008 nrows=504 sparsity=.6037 nnzs=613414, refcount: 8>
  <dData2D:(DMatomic) n=613414 m=1, refcount: 1>
refcount: 1>

transiesta: Initialization run using siesta

New grid distribution:   1
           1       1:   27    1:   27    1:   50
           2       1:   27    1:   27   51:  100

InitMesh: MESH =    54 x    54 x   200 =      583200
InitMesh: (bp) =    27 x    27 x   100 =       72900
InitMesh: Mesh cutoff (required, used) =   100.000   103.859 Ry
ExtMesh (bp) on 0 =    75 x    75 x    98 =      551250
New grid distribution:   2
           1       1:   27    1:   27    1:   63
           2       1:   27    1:   27   64:  100
New grid distribution:   3
           1       1:   27    1:   27    1:   51
           2       1:   27    1:   27   52:  100
Setting up quadratic distribution...
ExtMesh (bp) on 0 =    75 x    75 x   111 =      624375
PhiOnMesh: Number of (b)points on node 0 =                45927
PhiOnMesh: nlist on node 0 =              2676728

ts: Using electrode: Right for Hartree correction
ts: Grid fraction plane  0.96875
ts: Grid point plane (Ang):       0.00000       0.00000      31.60605

ts-Vha: -0.23488E-05 eV
cdiag-debug: Node=0, lwork=     61056>= lworkq=     37872, lrwork=   1534177>= lrworkq=   1533169, liwork=      7074>= liworkq=      7074
cdiag-debug: Node=1, lwork=     61056>= lworkq=     37872, lrwork=   1534177>= lrworkq=   1533169, liwork=      7074>= liworkq=      7074

stepf: Fermi-Dirac step function
ts-Vha: -0.32399E+02 eV

siesta: Program's energy decomposition (eV):
siesta: Ebs     =     18303.029740
siesta: Eions   =    106428.788183
siesta: Ena     =       385.354664
siesta: Ekin    =     71439.585170
siesta: Enl     =    -46038.605058
siesta: EldaU   =         0.000000
siesta: DEna    =       166.581004
siesta: DUscf   =       281.732925
siesta: DUext   =         0.000000
siesta: Exc     =    -80125.865693
siesta: eta*DQ  =         0.000000
siesta: Emadel  =         0.000000
siesta: Emeta   =         0.000000
siesta: Emolmec =         0.000000
siesta: Ekinion =         0.000000
siesta: Eharris =   -159815.175562
siesta: Etot    =   -160320.005171
siesta: FreeEng =   -160320.098657

        iscf   Eharris(eV)      E_KS(eV)   FreeEng(eV)   dDmax  Ef(eV)dHmx(Ry)
   scf:    1  -159815.1756  -160320.0052  -160320.0987  0.7632 -1.9561  5.4960
timer: Routine,Calls,Time,% =    IterSCF     1      66.072  78.66
ts-Vha:  0.92376E+02 eV
   scf:    2  -156826.3097  -159514.6690  -159514.7896  0.8990 -0.9142 12.7208
ts-Vha:  0.11132E+02 eV
   scf:    3  -160702.8576  -160488.4467  -160488.5872  0.3198 -1.8531  1.6031
ts-Vha:  0.79737E+00 eV
   scf:    4  -160507.2955  -160508.7374  -160508.9032  0.2198 -2.1786  0.6518
ts-Vha:  0.23590E+01 eV
   scf:    5  -160504.9666  -160511.2356  -160511.3613  0.1420 -2.0864  0.6143
ts-Vha:  0.23455E+01 eV
   scf:    6  -160513.1170  -160512.5065  -160512.6321  0.0133 -2.1089  0.4947
ts-Vha:  0.19678E+01 eV
   scf:    7  -160518.1903  -160515.8684  -160516.0057  0.0888 -2.2166  0.4297
ts-Vha:  0.19836E+01 eV
   scf:    8  -160520.3831  -160518.1699  -160518.3045  0.0274 -2.3063  0.4110
ts-Vha: -0.17564E+01 eV
   scf:    9  -160528.5288  -160526.1942  -160526.3285  0.1023 -3.2005  0.3812
ts-Vha:  0.68313E+00 eV
   scf:   10  -160523.5490  -160525.8463  -160525.9818  0.0446 -2.8091  0.1415
ts-Vha: -0.10560E+00 eV
   scf:   11  -160528.5171  -160527.4243  -160527.5629  0.0345 -3.1381  0.0168
ts-Vha: -0.69196E-01 eV
   scf:   12  -160527.3431  -160527.3970  -160527.5351  0.0084 -3.0969  0.0333
ts-Vha: -0.13287E+00 eV
   scf:   13  -160527.4914  -160527.4508  -160527.5891  0.0041 -3.1287  0.0145
ts-Vha: -0.25333E-01 eV
   scf:   14  -160527.5662  -160527.5173  -160527.6558  0.0055 -3.1575  0.0140
ts-Vha: -0.72560E-01 eV
   scf:   15  -160527.5290  -160527.5247  -160527.6633  0.0020 -3.1865  0.0060
ts-Vha: -0.89698E-01 eV
   scf:   16  -160527.5261  -160527.5255  -160527.6640  0.0006 -3.1939  0.0081
ts-Vha: -0.73781E-01 eV
   scf:   17  -160527.5390  -160527.5331  -160527.6713  0.0032 -3.1955  0.0027
ts-Vha: -0.97308E-01 eV
   scf:   18  -160527.5356  -160527.5345  -160527.6726  0.0013 -3.1973  0.0033
ts-Vha: -0.82313E-01 eV
   scf:   19  -160527.5360  -160527.5354  -160527.6734  0.0013 -3.1922  0.0023
ts-Vha: -0.82815E-01 eV
   scf:   20  -160527.5355  -160527.5355  -160527.6735  0.0002 -3.1927  0.0020
ts-Vha: -0.82519E-01 eV
   scf:   21  -160527.5356  -160527.5355  -160527.6735  0.0005 -3.1927  0.0017
ts-Vha: -0.85047E-01 eV
   scf:   22  -160527.5357  -160527.5357  -160527.6737  0.0009 -3.1946  0.0008
ts-Vha: -0.87963E-01 eV
   scf:   23  -160527.5356  -160527.5356  -160527.6737  0.0002 -3.1961  0.0005
ts-Vha: -0.86592E-01 eV
   scf:   24  -160527.5357  -160527.5357  -160527.6737  0.0001 -3.1961  0.0004

SCF Convergence by dDmax criteria
max |DM_out - DM_in|:     0.00009055
SCF cycle converged after 24 iterations

                     ***************************
                     *  WELCOME TO TRANSIESTA  *
                     ***************************

ts-Vha: -0.86592E-01 eV

Created the TranSIESTA H,S sparsity pattern:
  <sparsity:(M of: G ((UC of: T T T sparsity for geom step 0)))
    nrows_g=1008 nrows=1008 sparsity=.2161 nnzs=219576, refcount: 1>

Created the TranSIESTA global update sparsity pattern:
  <sparsity:G ((UC of: (M of: T T T sparsity for geom step 0)))
    nrows_g=1008 nrows=1008 sparsity=.0674 nnzs=68460, refcount: 1>

transiesta: Determining an optimal tri-matrix using: atom+Left
transiesta: Established a near-optimal partition for the tri-diagonal matrix.
BTD partitions (4): 
  [ 252, 252, 135, 369 ]
transiesta: Matrix elements in tri / full: 576072 / 1016064

transiesta: mem of electrodes (static):                     3.20MB
transiesta: mem of global update arrays (static):           8.79MB
transiesta: mem of tri-diagonal matrices:                  17.58MB
transiesta: Total memory usage:                            29.57MB

transiesta: Charge distribution, target =   1232.00000
Total charge                  [Q]  :  1232.00000
Device                        [D]  :   436.14158
Left                          [E1] :   392.14927
Left                 / device [C1] :     3.86754
Right                         [E2] :   392.14918
Right                / device [C2] :     3.86757
Other                         [O]  :     3.82485

ts-q:         D        E1        C1        E2        C2        dQ
ts-q:   436.118   392.149     3.868   392.149     3.868 -2.343E-2
ts-Vha:  0.43246E-01 eV

siesta: Program's energy decomposition (eV):
siesta: Ebs     =     -9332.344059
siesta: Eions   =    106428.788183
siesta: Ena     =       385.354664
siesta: Ekin    =     73194.801078
siesta: Enl     =    -47374.162557
siesta: EldaU   =         0.000000
siesta: DEna    =       105.254841
siesta: DUscf   =        41.010745
siesta: DUext   =         0.000000
siesta: Exc     =    -80451.186666
siesta: eta*DQ  =         0.000000
siesta: Emadel  =         0.000000
siesta: Emeta   =         0.000000
siesta: Emolmec =         0.000000
siesta: Ekinion =         0.000000
siesta: Eharris =   -160527.886328
siesta: Etot    =   -160527.716078
siesta: FreeEng =   -160527.716078

        iscf   Eharris(eV)      E_KS(eV)   FreeEng(eV)   dDmax  Ef(eV)dHmx(Ry)
ts-scf:    1  -160527.8863  -160527.7161  -160527.7161  0.0183 -3.1961  0.0221
timer: Routine,Calls,Time,% =         TS     1      41.632   2.69
ts-q:         D        E1        C1        E2        C2        dQ
ts-q:   436.286   392.149     3.868   392.149     3.868  1.446E-1
ts-Vha: -0.32081E+00 eV
ts-scf:    2  -160528.8089  -160528.2990  -160528.2990  0.0049 -3.1961  0.0314
ts-q:         D        E1        C1        E2        C2        dQ
ts-q:   436.186   392.149     3.868   392.149     3.868  4.415E-2
ts-Vha: -0.12838E+00 eV
ts-scf:    3  -160527.6086  -160527.9501  -160527.9501  0.0026 -3.1961  0.0085
ts-q:         D        E1        C1        E2        C2        dQ
ts-q:   436.153   392.149     3.868   392.149     3.868  1.164E-2
ts-Vha: -0.91882E-01 eV
ts-scf:    4  -160527.7188  -160527.8334  -160527.8334  0.0018 -3.1961  0.0034
ts-q:         D        E1        C1        E2        C2        dQ
ts-q:   436.152   392.149     3.868   392.149     3.868  1.043E-2
ts-Vha: -0.90187E-01 eV
ts-scf:    5  -160527.8306  -160527.8319  -160527.8319  0.0006 -3.1961  0.0024
ts-q:         D        E1        C1        E2        C2        dQ
ts-q:   436.150   392.149     3.868   392.149     3.868  8.235E-3
ts-Vha: -0.87623E-01 eV
ts-scf:    6  -160527.8373  -160527.8346  -160527.8346  0.0019 -3.1961  0.0006
ts-q:         D        E1        C1        E2        C2        dQ
ts-q:   436.151   392.149     3.868   392.149     3.868  9.184E-3
ts-Vha: -0.89592E-01 eV
ts-scf:    7  -160527.8474  -160527.8410  -160527.8410  0.0001 -3.1961  0.0007

SCF Convergence by dDmax criteria
max |DM_out - DM_in|:     0.00006322
SCF cycle converged after 7 iterations

Using DM_out to compute the final energy and forces
ts-Vha: -0.89592E-01 eV

siesta: E_KS(eV) =          -160527.8410

siesta: E_KS - E_eggbox =   -160527.8410

siesta: Atomic forces (eV/Ang):
----------------------------------------
   Tot   -0.006104   -0.006104    0.002404
----------------------------------------
   Max    1.302225
   Res    0.297047    sqrt( Sum f_i^2 / 3N )
----------------------------------------
   Max    1.302225    constrained

Stress-tensor-Voigt (kbar):     -138.19     -138.19     -138.48        1.12        0.58        0.58
(Free)E + p*V (eV/cell)  -160317.0890
Target enthalpy (eV/cell)  -160527.8410

mulliken: Atomic and Orbital Populations:

Species: Au                  
Atom  Qatom  Qorb
               6s      5dxy    5dyz    5dz2    5dxz    5dx2-y2 6Ppy    6Ppz    
               6Ppx    
   1 10.998   0.973   1.932   1.890   1.939   1.890   1.894   0.159   0.161
              0.159
   2 10.999   0.976   1.932   1.890   1.940   1.890   1.894   0.158   0.161
              0.158
   3 10.999   0.976   1.932   1.889   1.940   1.890   1.894   0.158   0.162
              0.158
   4 10.999   0.976   1.932   1.890   1.940   1.890   1.894   0.158   0.161
              0.158
   5 10.999   0.975   1.933   1.889   1.939   1.889   1.894   0.159   0.162
              0.159
   6 10.999   0.975   1.932   1.890   1.939   1.891   1.894   0.158   0.162
              0.159
   7 10.999   0.976   1.932   1.890   1.940   1.889   1.894   0.158   0.162
              0.158
   8 10.999   0.975   1.932   1.891   1.939   1.890   1.894   0.159   0.162
              0.158
   9 10.999   0.974   1.933   1.890   1.938   1.890   1.894   0.159   0.162
              0.159
  10 11.004   0.987   1.935   1.886   1.939   1.886   1.894   0.159   0.160
              0.159
  11 11.002   0.981   1.935   1.887   1.940   1.886   1.894   0.159   0.160
              0.159
  12 11.003   0.984   1.935   1.886   1.940   1.886   1.894   0.159   0.161
              0.159
  13 11.002   0.981   1.935   1.886   1.940   1.887   1.894   0.159   0.160
              0.159
  14 11.001   0.982   1.935   1.888   1.940   1.888   1.893   0.159   0.157
              0.159
  15 11.001   0.980   1.935   1.887   1.939   1.887   1.894   0.159   0.160
              0.159
  16 11.003   0.984   1.935   1.886   1.940   1.886   1.894   0.159   0.161
              0.159
  17 11.001   0.980   1.935   1.887   1.939   1.887   1.894   0.159   0.160
              0.159
  18 11.004   0.985   1.935   1.886   1.940   1.886   1.894   0.159   0.161
              0.159
  19 10.998   0.971   1.932   1.890   1.939   1.890   1.894   0.159   0.164
              0.159
  20 11.000   0.978   1.932   1.889   1.940   1.891   1.893   0.159   0.160
              0.158
  21 11.001   0.979   1.932   1.888   1.940   1.891   1.893   0.159   0.160
              0.159
  22 11.000   0.978   1.932   1.891   1.940   1.889   1.893   0.158   0.160
              0.159
  23 11.000   0.978   1.932   1.889   1.940   1.889   1.894   0.159   0.160
              0.159
  24 11.000   0.978   1.932   1.889   1.941   1.890   1.894   0.159   0.159
              0.159
  25 11.001   0.979   1.932   1.891   1.940   1.888   1.893   0.159   0.160
              0.159
  26 11.000   0.978   1.932   1.890   1.941   1.889   1.894   0.159   0.159
              0.159
  27 10.999   0.977   1.933   1.889   1.940   1.889   1.894   0.159   0.159
              0.159
  28 10.998   0.975   1.936   1.891   1.939   1.891   1.889   0.159   0.160
              0.159
  29 10.999   0.973   1.935   1.890   1.938   1.891   1.889   0.160   0.164
              0.160
  30 10.998   0.975   1.935   1.890   1.939   1.891   1.889   0.159   0.161
              0.159
  31 10.999   0.973   1.935   1.891   1.938   1.890   1.889   0.160   0.164
              0.160
  32 11.001   0.973   1.934   1.890   1.937   1.890   1.890   0.161   0.165
              0.161
  33 10.999   0.973   1.935   1.891   1.938   1.890   1.889   0.160   0.163
              0.160
  34 10.998   0.975   1.935   1.891   1.939   1.890   1.889   0.159   0.161
              0.159
  35 10.999   0.973   1.935   1.890   1.938   1.891   1.889   0.160   0.163
              0.160
  36 10.998   0.973   1.935   1.890   1.938   1.890   1.889   0.160   0.162
              0.160
  37 10.959   0.947   1.938   1.902   1.941   1.902   1.877   0.153   0.148
              0.153
  38 10.972   0.956   1.938   1.902   1.927   1.900   1.881   0.153   0.162
              0.153
  39 10.972   0.959   1.938   1.902   1.927   1.901   1.881   0.153   0.160
              0.153
  40 10.972   0.956   1.938   1.900   1.927   1.902   1.881   0.153   0.162
              0.153
  41 10.974   0.956   1.939   1.901   1.927   1.901   1.878   0.154   0.165
              0.154
  42 10.975   0.958   1.939   1.901   1.927   1.901   1.878   0.154   0.165
              0.154
  43 10.972   0.959   1.938   1.901   1.927   1.902   1.881   0.153   0.160
              0.153
  44 10.975   0.958   1.939   1.901   1.927   1.901   1.878   0.154   0.165
              0.154
  45 10.978   0.963   1.938   1.900   1.927   1.900   1.878   0.154   0.164
              0.154
  46 11.013   1.004   1.950   1.914   1.936   1.914   1.868   0.143   0.141
              0.143
  47 11.027   1.037   1.949   1.921   1.948   1.928   1.860   0.136   0.111
              0.137
  48 11.013   1.012   1.949   1.912   1.939   1.916   1.867   0.144   0.132
              0.142
  49 11.027   1.037   1.949   1.928   1.948   1.921   1.860   0.137   0.111
              0.136
  50 11.032   1.045   1.949   1.922   1.949   1.922   1.861   0.138   0.109
              0.138
  51 11.025   1.037   1.949   1.927   1.948   1.921   1.860   0.136   0.109
              0.136
  52 11.013   1.012   1.949   1.916   1.939   1.912   1.867   0.142   0.132
              0.144
  53 11.025   1.037   1.949   1.921   1.948   1.927   1.860   0.136   0.109
              0.136
  54 11.031   1.030   1.948   1.911   1.937   1.911   1.868   0.145   0.136
              0.145
  55 11.044   1.093   1.927   1.899   1.961   1.899   1.976   0.084   0.118
              0.084
  56 11.008   1.077   1.977   1.938   1.966   1.938   1.986   0.025   0.076
              0.025
  57 11.008   1.077   1.977   1.938   1.965   1.938   1.986   0.025   0.076
              0.025
  58 11.044   1.093   1.927   1.899   1.961   1.899   1.976   0.084   0.118
              0.084
  59 11.013   1.004   1.950   1.914   1.936   1.914   1.868   0.143   0.141
              0.143
  60 11.013   1.012   1.949   1.912   1.939   1.916   1.867   0.144   0.132
              0.142
  61 11.027   1.037   1.949   1.921   1.948   1.928   1.860   0.136   0.111
              0.137
  62 11.013   1.012   1.949   1.916   1.939   1.912   1.867   0.142   0.132
              0.144
  63 11.031   1.030   1.948   1.911   1.937   1.911   1.868   0.145   0.136
              0.145
  64 11.025   1.037   1.949   1.921   1.948   1.927   1.860   0.136   0.109
              0.136
  65 11.027   1.037   1.949   1.928   1.948   1.921   1.860   0.137   0.111
              0.136
  66 11.025   1.037   1.949   1.927   1.948   1.921   1.860   0.136   0.109
              0.136
  67 11.032   1.045   1.949   1.922   1.949   1.922   1.861   0.138   0.109
              0.138
  68 10.959   0.947   1.938   1.902   1.940   1.902   1.877   0.153   0.148
              0.153
  69 10.972   0.959   1.938   1.902   1.927   1.901   1.881   0.153   0.160
              0.153
  70 10.972   0.956   1.938   1.902   1.927   1.900   1.881   0.153   0.162
              0.153
  71 10.972   0.959   1.938   1.901   1.927   1.902   1.881   0.153   0.160
              0.153
  72 10.978   0.963   1.938   1.900   1.927   1.900   1.878   0.154   0.164
              0.154
  73 10.975   0.958   1.939   1.901   1.927   1.900   1.878   0.154   0.165
              0.154
  74 10.972   0.956   1.938   1.900   1.927   1.902   1.881   0.153   0.162
              0.153
  75 10.975   0.958   1.939   1.900   1.927   1.901   1.878   0.154   0.165
              0.154
  76 10.974   0.956   1.939   1.901   1.927   1.901   1.878   0.154   0.165
              0.154
  77 10.998   0.975   1.936   1.891   1.939   1.891   1.889   0.159   0.160
              0.159
  78 10.998   0.975   1.935   1.890   1.939   1.891   1.889   0.159   0.161
              0.159
  79 10.999   0.973   1.935   1.890   1.938   1.891   1.889   0.160   0.164
              0.160
  80 10.998   0.975   1.935   1.891   1.939   1.890   1.889   0.159   0.161
              0.159
  81 10.998   0.973   1.935   1.890   1.938   1.890   1.889   0.160   0.162
              0.160
  82 10.999   0.973   1.935   1.890   1.938   1.891   1.889   0.160   0.163
              0.160
  83 10.999   0.973   1.935   1.891   1.938   1.890   1.889   0.160   0.164
              0.160
  84 10.999   0.973   1.935   1.891   1.938   1.890   1.889   0.160   0.163
              0.160
  85 11.001   0.973   1.934   1.890   1.937   1.890   1.890   0.161   0.165
              0.161
  86 10.998   0.971   1.932   1.890   1.939   1.890   1.894   0.159   0.164
              0.159
  87 11.001   0.979   1.932   1.888   1.940   1.890   1.893   0.159   0.160
              0.159
  88 11.000   0.978   1.932   1.889   1.940   1.891   1.893   0.159   0.160
              0.158
  89 11.001   0.979   1.932   1.890   1.940   1.888   1.893   0.159   0.160
              0.159
  90 10.999   0.977   1.933   1.889   1.940   1.889   1.894   0.159   0.159
              0.159
  91 11.000   0.978   1.932   1.890   1.941   1.889   1.894   0.159   0.159
              0.159
  92 11.000   0.978   1.932   1.891   1.940   1.889   1.893   0.158   0.160
              0.159
  93 11.000   0.978   1.932   1.889   1.941   1.890   1.894   0.159   0.159
              0.159
  94 11.000   0.978   1.932   1.889   1.940   1.889   1.894   0.159   0.160
              0.159
  95 11.004   0.987   1.935   1.886   1.939   1.886   1.894   0.159   0.160
              0.159
  96 11.003   0.984   1.935   1.886   1.940   1.886   1.894   0.159   0.161
              0.159
  97 11.002   0.981   1.935   1.887   1.940   1.886   1.894   0.159   0.161
              0.159
  98 11.003   0.984   1.935   1.886   1.940   1.886   1.894   0.159   0.161
              0.159
  99 11.004   0.985   1.935   1.886   1.940   1.886   1.894   0.159   0.161
              0.159
 100 11.001   0.980   1.935   1.887   1.939   1.887   1.894   0.159   0.161
              0.159
 101 11.002   0.981   1.935   1.886   1.940   1.887   1.894   0.159   0.161
              0.159
 102 11.001   0.980   1.935   1.887   1.939   1.887   1.894   0.159   0.161
              0.159
 103 11.001   0.982   1.935   1.888   1.940   1.888   1.893   0.159   0.157
              0.159
 104 10.998   0.973   1.932   1.890   1.939   1.890   1.894   0.159   0.161
              0.159
 105 10.999   0.976   1.932   1.889   1.940   1.890   1.894   0.158   0.162
              0.158
 106 10.999   0.976   1.933   1.890   1.940   1.890   1.894   0.158   0.161
              0.158
 107 10.999   0.976   1.932   1.890   1.940   1.889   1.894   0.158   0.162
              0.158
 108 10.999   0.974   1.933   1.890   1.938   1.890   1.894   0.159   0.162
              0.159
 109 10.999   0.975   1.932   1.891   1.939   1.890   1.894   0.159   0.161
              0.158
 110 10.999   0.976   1.933   1.890   1.940   1.890   1.894   0.158   0.161
              0.158
 111 10.999   0.975   1.932   1.890   1.939   1.891   1.894   0.158   0.161
              0.159
 112 10.999   0.975   1.933   1.889   1.939   1.889   1.894   0.159   0.162
              0.159

mulliken: Qtot =     1232.009

coxmol: Writing XMOL coordinates into file au_100.xyz                                                      

siesta: Program's energy decomposition (eV):
siesta: Ebs     =     -9218.349972
siesta: Eions   =    106428.788183
siesta: Ena     =       385.354664
siesta: Ekin    =     73195.963450
siesta: Enl     =    -47374.813406
siesta: EldaU   =         0.000000
siesta: DEna    =       105.132570
siesta: DUscf   =        41.003138
siesta: DUext   =         0.000000
siesta: Exc     =    -80451.693258
siesta: eta*DQ  =         0.000000
siesta: Emadel  =         0.000000
siesta: Emeta   =         0.000000
siesta: Emolmec =         0.000000
siesta: Ekinion =         0.000000
siesta: Eharris =   -160527.847360
siesta: Etot    =   -160527.841026
siesta: FreeEng =   -160527.841026

siesta: Final energy (eV):
siesta:  Band Struct. =   -9218.349972
siesta:       Kinetic =   73195.963450
siesta:       Hartree =  242725.817472
siesta:       Eldau   =       0.000000
siesta:    Ext. field =       0.000000
siesta:   Exch.-corr. =  -80451.693258
siesta:  Ion-electron = -541556.755109
siesta:       Ion-ion =  145558.826419
siesta:       Ekinion =       0.000000
siesta:         Total = -160527.841026

siesta: Atomic forces (eV/Ang):
siesta:      1   -0.005966   -0.005966   -0.018055
siesta:      2    0.006016   -0.000484   -0.026631
siesta:      3   -0.000604    0.001389   -0.026325
siesta:      4   -0.000484    0.006016   -0.026631
siesta:      5    0.000517    0.000517   -0.002008
siesta:      6   -0.000710   -0.011510   -0.020321
siesta:      7    0.001389   -0.000604   -0.026325
siesta:      8   -0.011510   -0.000710   -0.020321
siesta:      9    0.010698    0.010698   -0.005435
siesta:     10    0.001584    0.001584    0.031250
siesta:     11   -0.004488   -0.006086    0.047670
siesta:     12    0.003135   -0.002949    0.035319
siesta:     13   -0.006086   -0.004488    0.047670
siesta:     14   -0.005048   -0.005048    0.034579
siesta:     15    0.011036   -0.003252    0.056076
siesta:     16   -0.002949    0.003135    0.035319
siesta:     17   -0.003252    0.011036    0.056076
siesta:     18    0.006013    0.006013    0.046024
siesta:     19   -0.010993   -0.010993   -0.066015
siesta:     20    0.011413   -0.000247   -0.078298
siesta:     21    0.001334    0.004176   -0.089538
siesta:     22   -0.000247    0.011413   -0.078298
siesta:     23    0.003833    0.003833   -0.101298
siesta:     24   -0.004043   -0.007960   -0.088950
siesta:     25    0.004176    0.001334   -0.089538
siesta:     26   -0.007960   -0.004043   -0.088950
siesta:     27    0.003576    0.003576   -0.093456
siesta:     28    0.007786    0.007786    0.033271
siesta:     29   -0.002897   -0.001244   -0.009951
siesta:     30   -0.005648   -0.000092    0.020945
siesta:     31   -0.001244   -0.002897   -0.009951
siesta:     32   -0.008478   -0.008478    0.051660
siesta:     33    0.010168   -0.001380   -0.004121
siesta:     34   -0.000092   -0.005648    0.020945
siesta:     35   -0.001380    0.010168   -0.004121
siesta:     36   -0.000795   -0.000795    0.036252
siesta:     37   -0.006849   -0.006849   -0.315942
siesta:     38    0.006044   -0.009768   -0.037115
siesta:     39   -0.004317   -0.010940   -0.032608
siesta:     40   -0.009768    0.006044   -0.037115
siesta:     41   -0.065593   -0.065593    0.086211
siesta:     42    0.073214   -0.053251    0.077391
siesta:     43   -0.010940   -0.004317   -0.032608
siesta:     44   -0.053251    0.073214    0.077391
siesta:     45    0.064266    0.064266    0.056749
siesta:     46    0.280486    0.280486    1.263084
siesta:     47   -0.015032    0.019910    1.079080
siesta:     48   -0.249621    0.216598    1.191835
siesta:     49    0.019910   -0.015032    1.079080
siesta:     50    0.000467    0.000467    1.098083
siesta:     51   -0.017385   -0.007730    1.057766
siesta:     52    0.216598   -0.249621    1.191835
siesta:     53   -0.007730   -0.017385    1.057766
siesta:     54   -0.163186   -0.163186    1.297995
siesta:     55    0.367394    0.367394    0.363845
siesta:     56   -0.947637   -0.947637    0.014551
siesta:     57    0.943848    0.943848   -0.013663
siesta:     58   -0.369381   -0.369381   -0.359141
siesta:     59   -0.280614   -0.280614   -1.270236
siesta:     60    0.249788   -0.216793   -1.195462
siesta:     61    0.015259   -0.019829   -1.083949
siesta:     62   -0.216793    0.249788   -1.195462
siesta:     63    0.162932    0.162932   -1.302225
siesta:     64    0.007699    0.017335   -1.062397
siesta:     65   -0.019829    0.015259   -1.083949
siesta:     66    0.017335    0.007699   -1.062397
siesta:     67   -0.000498   -0.000498   -1.102633
siesta:     68    0.006617    0.006617    0.318948
siesta:     69    0.003665    0.011083    0.036040
siesta:     70   -0.005373    0.009722    0.040520
siesta:     71    0.011083    0.003665    0.036040
siesta:     72   -0.064777   -0.064777   -0.052927
siesta:     73    0.053591   -0.073505   -0.073629
siesta:     74    0.009722   -0.005373    0.040520
siesta:     75   -0.073505    0.053591   -0.073629
siesta:     76    0.066019    0.066019   -0.082438
siesta:     77   -0.007929   -0.007929   -0.032579
siesta:     78    0.005822    0.000044   -0.020144
siesta:     79    0.002853    0.001329    0.011230
siesta:     80    0.000044    0.005822   -0.020144
siesta:     81    0.000866    0.000866   -0.035439
siesta:     82    0.001384   -0.010419    0.005521
siesta:     83    0.001329    0.002853    0.011230
siesta:     84   -0.010419    0.001384    0.005521
siesta:     85    0.008647    0.008647   -0.050371
siesta:     86    0.011009    0.011009    0.065595
siesta:     87   -0.000974   -0.004129    0.089325
siesta:     88   -0.011761    0.000351    0.078016
siesta:     89   -0.004129   -0.000974    0.089325
siesta:     90   -0.003419   -0.003419    0.093218
siesta:     91    0.007756    0.004133    0.088641
siesta:     92    0.000351   -0.011761    0.078016
siesta:     93    0.004133    0.007756    0.088641
siesta:     94   -0.004042   -0.004042    0.101061
siesta:     95   -0.001724   -0.001724   -0.031481
siesta:     96   -0.002925    0.002846   -0.035588
siesta:     97    0.004423    0.006113   -0.048014
siesta:     98    0.002846   -0.002925   -0.035588
siesta:     99   -0.005974   -0.005974   -0.046226
siesta:    100    0.003306   -0.011123   -0.056301
siesta:    101    0.006113    0.004423   -0.048014
siesta:    102   -0.011123    0.003306   -0.056301
siesta:    103    0.005116    0.005116   -0.035140
siesta:    104    0.005923    0.005923    0.018390
siesta:    105    0.000663   -0.001378    0.026559
siesta:    106   -0.006044    0.000570    0.026991
siesta:    107   -0.001378    0.000663    0.026559
siesta:    108   -0.010610   -0.010610    0.005672
siesta:    109    0.011409    0.000690    0.020603
siesta:    110    0.000570   -0.006044    0.026991
siesta:    111    0.000690    0.011409    0.020603
siesta:    112   -0.000567   -0.000567    0.002303
siesta: ----------------------------------------
siesta:    Tot   -0.006104   -0.006104    0.002404

siesta: Stress tensor (static) (eV/Ang**3):
siesta:    -0.086250    0.000701    0.000364
siesta:     0.000701   -0.086250    0.000364
siesta:     0.000362    0.000362   -0.086432

siesta: Cell volume =       2441.783730 Ang**3

siesta: Pressure (static):
siesta:                Solid            Molecule  Units
siesta:           0.00094003          0.00108787  Ry/Bohr**3
siesta:           0.08631067          0.09988433  eV/Ang**3
siesta:         138.28642925        160.03407212  kBar
(Free)E+ p_basis*V_orbitals  =     -160450.233580
(Free)Eharris+ p_basis*V_orbitals  =     -160450.239914
ts-Vha: -0.89592E-01 eV

dhscf: Vacuum level (max, mean) =    1.513130    1.415610 eV
>> End of run:   2-JUN-2016   0:15:03
